<?xml version="1.0" standalone="no"?>
<!DOCTYPE svg PUBLIC "-//W3C//DTD SVG 1.1//EN" "http://www.w3.org/Graphics/SVG/1.1/DTD/svg11.dtd" >
<svg xmlns="http://www.w3.org/2000/svg" xmlns:xlink="http://www.w3.org/1999/xlink" version="1.1">
<metadata>
Created by FontForge 20150824 at Wed Dec 30 00:17:53 2015
 By Everything Fonts
Copyright (c) 1988, 1990, 1993, 2002 Adobe Systems Incorporated.  All Rights Reserved. (c) 1981, 2002 Heidelberger Druckmaschinen AG. All rights reserved.
</metadata>
<defs>
<font id="HelveticaNeueLTStdLt" horiz-adv-x="556" >
  <font-face 
    font-family="HelveticaNeueLTStdLt"
    font-weight="300"
    font-stretch="normal"
    units-per-em="1000"
    panose-1="2 11 4 3 2 2 2 2 2 4"
    ascent="714"
    descent="-286"
    x-height="516"
    cap-height="714"
    bbox="-166 -214 1050 967"
    underline-thickness="50"
    underline-position="-150"
    unicode-range="U+0020-FB02"
  />
<missing-glyph horiz-adv-x="500" 
d="M0 0v700h500v-700h-500zM250 395l170 255h-340zM280 350l170 -255v510zM80 50h340l-170 255zM50 605v-510l170 255z" />
    <glyph glyph-name="fi" unicode="fi" horiz-adv-x="444" 
d="M320 0v516h63v-516h-63zM94 0v463h-88v53h88v47q-1 73 26.5 112t98.5 39q26 0 53 -4v-54q-28 5 -46 5q-20 0 -34 -6t-20.5 -12t-10 -23.5t-4 -25.5t-0.5 -33v-45h102v-53h-102v-463h-63zM320 613v101h63v-101h-63z" />
    <glyph glyph-name="fl" unicode="fl" horiz-adv-x="444" 
d="M94 0v463h-88v53h88v47q-1 73 26.5 112t98.5 39q26 0 53 -4v-54q-28 5 -46 5q-20 0 -34 -6t-20.5 -12t-10 -23.5t-4 -25.5t-0.5 -33v-45h102v-53h-102v-463h-63zM320 0v714h63v-714h-63z" />
    <glyph glyph-name=".notdef" horiz-adv-x="500" 
d="M0 0v700h500v-700h-500zM250 395l170 255h-340zM280 350l170 -255v510zM80 50h340l-170 255zM50 605v-510l170 255z" />
    <glyph glyph-name=".null" horiz-adv-x="0" 
 />
    <glyph glyph-name="nonmarkingreturn" horiz-adv-x="333" 
 />
    <glyph glyph-name="space" unicode=" " horiz-adv-x="278" 
 />
    <glyph glyph-name="exclam" unicode="!" horiz-adv-x="241" 
d="M102 178l-15 323v213h68v-213l-15 -323h-38zM163 0h-84v106h84v-106z" />
    <glyph glyph-name="quotedbl" unicode="&#x22;" horiz-adv-x="370" 
d="M87 471v243h63v-243h-63zM220 471v243h63v-243h-63z" />
    <glyph glyph-name="numbersign" unicode="#" 
d="M497 268v-45h-111l-31 -223h-50l31 223h-141l-31 -223h-50l31 223h-110v45h116l22 156h-110v45h116l31 222h50l-31 -222h141l31 222h50l-31 -222h105v-45h-111l-22 -156h105zM364 424h-141l-22 -156h141z" />
    <glyph glyph-name="dollar" unicode="$" 
d="M296 326v-288q70 0 119 36.5t49 109.5q0 34 -14 59t-42 41t-52 24.5t-60 17.5zM257 397v279q-65 0 -106 -37t-41 -112q0 -27 9 -47.5t20.5 -33t34 -23t38.5 -15t45 -11.5zM29 228h63q1 -171 165 -190v296q-49 11 -81.5 23t-64.5 33.5t-48 57.5t-16 86q0 88 60.5 141.5
t149.5 53.5v78h39v-78q90 0 152 -60.5t60 -156.5h-63q-1 74 -42 119t-107 45v-288q50 -11 85.5 -23t71.5 -34.5t55 -59t19 -86.5q0 -93 -68.5 -147t-162.5 -53v-85h-39v86q-116 11 -169.5 69t-58.5 173z" />
    <glyph glyph-name="percent" unicode="%" horiz-adv-x="889" 
d="M228 661q-57 0 -81.5 -43t-24.5 -102q0 -58 24.5 -100.5t81.5 -42.5t81.5 42.5t24.5 100.5q0 59 -24.5 102t-81.5 43zM228 706q81 0 120 -51.5t39 -137.5t-39 -137.5t-120 -51.5t-120 51.5t-39 137.5t39 137.5t120 51.5zM667 363q81 0 120 -51.5t39 -137.5t-39 -137.5
t-120 -51.5t-120 51.5t-39 137.5t39 137.5t120 51.5zM667 318q-57 0 -81.5 -43t-24.5 -102q0 -58 24.5 -100.5t81.5 -42.5t81.5 42.5t24.5 100.5q0 59 -24.5 102t-81.5 43zM190 -34l453 759h47l-452 -759h-48z" />
    <glyph glyph-name="ampersand" unicode="&#x26;" horiz-adv-x="611" 
d="M426 140l-178 216q-146 -79 -146 -177q0 -61 46 -101t109 -40q97 0 169 102zM541 0l-76 93q-86 -108 -210 -108q-95 0 -155.5 53t-60.5 147q0 118 175 212q-4 5 -19.5 25t-21 27.5t-17.5 26t-16.5 30.5t-9 29t-4.5 34q0 64 45.5 104.5t112.5 40.5t112.5 -40.5
t45.5 -104.5q0 -60 -36.5 -101.5t-103.5 -83.5l156 -188q21 43 21 120h63q0 -93 -42 -171l120 -145h-79zM284 661q-41 0 -68 -24.5t-27 -67.5q0 -23 16.5 -54t26.5 -44t37 -46q110 68 110 144q0 43 -27 67.5t-68 24.5z" />
    <glyph glyph-name="quotesingle" unicode="'" horiz-adv-x="278" 
d="M108 471v243h63v-243h-63z" />
    <glyph glyph-name="parenleft" unicode="(" horiz-adv-x="241" 
d="M242 -191h-50q-71 117 -106 224.5t-35 232.5q0 244 141 463h50q-128 -204 -128 -486q0 -107 35 -223t93 -211z" />
    <glyph glyph-name="parenright" unicode=")" horiz-adv-x="241" 
d="M-1 729h50q71 -117 106 -224.5t35 -232.5q0 -244 -141 -463h-50q128 204 128 486q0 107 -35 223t-93 211z" />
    <glyph glyph-name="asterisk" unicode="*" horiz-adv-x="352" 
d="M142 556l-115 39l14 37l115 -41v123h39v-123l115 41l15 -37l-118 -39l72 -98l-32 -23l-73 100l-73 -100l-32 23z" />
    <glyph glyph-name="plus" unicode="+" horiz-adv-x="600" 
d="M274 278v225h53v-225h225v-53h-225v-225h-53v225h-225v53h225z" />
    <glyph glyph-name="comma" unicode="," horiz-adv-x="278" 
d="M97 106h84v-107q-1 -47 -23.5 -85.5t-64.5 -50.5v43q23 8 35.5 37t10.5 57h-42v106z" />
    <glyph glyph-name="hyphen" unicode="-" horiz-adv-x="370" 
d="M310 246h-250v58h250v-58z" />
    <glyph glyph-name="period" unicode="." horiz-adv-x="278" 
d="M181 0h-84v106h84v-106z" />
    <glyph glyph-name="slash" unicode="/" horiz-adv-x="333" 
d="M41 -15h-54l308 744h51z" />
    <glyph glyph-name="zero" unicode="0" 
d="M278 653q-181 0 -181 -307q0 -308 181 -308t181 308q0 307 -181 307zM278 706q59 0 103.5 -22.5t70.5 -57t42.5 -84t22 -96t5.5 -100.5t-5.5 -101t-22 -96.5t-42.5 -84t-70.5 -57t-103.5 -22.5t-103.5 22.5t-70.5 57t-42.5 84t-22 96t-5.5 100.5t5.5 101t22 96.5t42.5 84
t70.5 57t103.5 22.5z" />
    <glyph glyph-name="one" unicode="1" 
d="M97 520v45q31 1 45 2t38 4t35.5 8t27 15t24 23.5t16 34.5t11.5 48h51v-700h-63v520h-185z" />
    <glyph glyph-name="two" unicode="2" 
d="M497 58v-58h-461q1 59 24.5 107t63 83t80 62.5t90 61.5t79.5 64q58 60 58 132q0 66 -45.5 104.5t-111.5 38.5q-81 0 -120.5 -55.5t-37.5 -139.5h-63q-2 112 55.5 180t168.5 68q95 0 156 -51.5t61 -145.5q0 -80 -47 -138t-129 -111q-10 -7 -45 -28.5t-55 -36.5t-47 -37.5
t-42.5 -47.5t-20.5 -52h389z" />
    <glyph glyph-name="three" unicode="3" 
d="M33 223h63q-3 -84 44 -134.5t131 -50.5q73 0 126 41.5t53 113.5q0 71 -47.5 109.5t-120.5 38.5h-53v53h53q55 -1 98.5 32.5t43.5 94.5q0 66 -43 99t-110 33q-77 0 -119 -48.5t-40 -128.5h-63q1 101 61 165.5t160 64.5q90 0 153.5 -45.5t63.5 -132.5q0 -58 -31.5 -100
t-86.5 -55v-2q68 -11 106 -57.5t38 -115.5q0 -99 -69.5 -156t-171.5 -57q-112 0 -179 64t-60 174z" />
    <glyph glyph-name="four" unicode="4" 
d="M30 174v61l324 465h57v-473h105v-53h-105v-174h-58v174h-323zM87 227h266v381h-2z" />
    <glyph glyph-name="five" unicode="5" 
d="M36 200h63q2 -72 50.5 -117t121.5 -45q79 0 127 56t48 135q0 78 -50.5 130t-128.5 52q-47 0 -89 -22t-67 -61h-54l68 363h350v-58h-306l-45 -232l2 -2q26 30 66.5 47.5t81.5 17.5q107 0 171 -67.5t64 -174.5q0 -102 -70.5 -169.5t-172.5 -67.5q-99 0 -163.5 58.5
t-66.5 156.5z" />
    <glyph glyph-name="six" unicode="6" 
d="M290 403q-80 0 -127 -52.5t-47 -132.5q0 -79 44 -129.5t131 -50.5q73 0 120.5 52.5t47.5 127.5q0 79 -45.5 132t-123.5 53zM505 523h-63q-8 59 -47 94.5t-99 35.5q-58 0 -98.5 -30t-59.5 -80t-27 -99t-8 -104h2q25 52 76 84t110 32q104 0 167.5 -65t63.5 -169
q0 -102 -67 -169.5t-170 -67.5q-129 0 -187 85t-58 287q0 33 3.5 69t19 89t40.5 93t73.5 69t113.5 29q93 0 148.5 -46t66.5 -137z" />
    <glyph glyph-name="seven" unicode="7" 
d="M51 633v58h450v-58q-266 -278 -283 -633h-68q13 179 78.5 323.5t209.5 309.5h-387z" />
    <glyph glyph-name="eight" unicode="8" 
d="M278 38q78 0 128 40.5t50 117.5q0 73 -52 113.5t-126 38.5q-76 2 -127 -38t-51 -114q0 -76 50.5 -117t127.5 -41zM490 531q0 -57 -30.5 -97.5t-83.5 -56.5v-2q67 -13 105 -60.5t38 -118.5q0 -101 -68.5 -156t-172.5 -55t-172.5 55t-68.5 156q2 69 40 118t102 61v2
q-55 17 -84.5 56.5t-29.5 97.5q0 84 63.5 129.5t148.5 45.5q86 0 149.5 -45.5t63.5 -129.5zM278 401q62 -2 105.5 32t43.5 98q0 58 -41.5 90t-107.5 32q-62 0 -106 -32.5t-44 -89.5q0 -66 44 -99t106 -31z" />
    <glyph glyph-name="nine" unicode="9" 
d="M266 288q80 0 127 52.5t47 132.5q0 79 -44 129.5t-131 50.5q-73 0 -120.5 -52.5t-47.5 -127.5q0 -79 45.5 -132t123.5 -53zM51 168h63q8 -59 47 -94.5t99 -35.5q58 0 98.5 30t59.5 80t27 99t8 104h-2q-25 -52 -76 -84t-110 -32q-104 0 -167.5 65t-63.5 169
q0 102 67 169.5t170 67.5q129 0 187 -85t58 -287q0 -33 -3.5 -69t-19 -89t-40.5 -93t-73.5 -69t-113.5 -29q-93 0 -148.5 46t-66.5 137z" />
    <glyph glyph-name="colon" unicode=":" horiz-adv-x="278" 
d="M181 394h-84v106h84v-106zM181 0h-84v106h84v-106z" />
    <glyph glyph-name="semicolon" unicode=";" horiz-adv-x="278" 
d="M97 106h84v-107q-1 -47 -23.5 -85.5t-64.5 -50.5v43q23 8 35.5 37t10.5 57h-42v106zM181 394h-84v106h84v-106z" />
    <glyph glyph-name="less" unicode="&#x3c;" horiz-adv-x="600" 
d="M554 47v-55l-508 234v54l508 234v-55l-446 -206z" />
    <glyph glyph-name="equal" unicode="=" horiz-adv-x="600" 
d="M552 378v-53h-503v53h503zM552 181v-53h-503v53h503z" />
    <glyph glyph-name="greater" unicode="&#x3e;" horiz-adv-x="600" 
d="M46 47l446 206l-446 206v55l508 -234v-54l-508 -234v55z" />
    <glyph glyph-name="question" unicode="?" horiz-adv-x="537" 
d="M117 494h-63q1 108 60.5 171.5t166.5 63.5q86 0 144.5 -50.5t58.5 -134.5q0 -52 -22 -91t-65 -79q-11 -11 -28 -27.5t-22 -22.5t-15.5 -16.5t-12.5 -17.5t-6.5 -17.5t-5 -24t-1.5 -29t-2 -40.5h-63q-1 46 4 76.5t22.5 58.5t33.5 45t55 53q65 61 65 129q0 59 -41.5 97
t-101.5 38q-79 0 -121 -50.5t-40 -131.5zM231 0v106h84v-106h-84z" />
    <glyph glyph-name="at" unicode="@" horiz-adv-x="800" 
d="M426 510q-71 0 -120.5 -76.5t-49.5 -154.5q0 -44 23 -70.5t60 -26.5q44 0 83.5 41t61 95t21.5 99q0 35 -25 64t-54 29zM614 544l-96 -288q-27 -83 13 -83q65 0 117 80.5t52 167.5q0 120 -82 191.5t-202 71.5q-138 0 -227 -95.5t-89 -235.5q0 -137 91 -230t227 -93
q74 0 144.5 35.5t113.5 97.5h51q-45 -82 -129.5 -130t-179.5 -48q-160 0 -265.5 108t-105.5 267q0 156 106.5 262.5t260.5 106.5q146 0 242.5 -87t96.5 -224q0 -117 -72.5 -203.5t-159.5 -86.5q-27 0 -45.5 17.5t-21.5 49.5h-2q-62 -66 -127 -66q-60 0 -96 42t-36 103
q0 70 29 135.5t84.5 109.5t123.5 44q75 0 106 -84l25 65h53z" />
    <glyph glyph-name="A" unicode="A" horiz-adv-x="630" 
d="M-7 0l288 714h76l280 -714h-73l-87 222h-325l-86 -222h-73zM316 646l-143 -366h281z" />
    <glyph glyph-name="B" unicode="B" horiz-adv-x="667" 
d="M140 343v-285h234q188 -2 188 147q0 68 -49 103t-139 35h-234zM72 0v714h302q65 0 113.5 -15t82 -56t33.5 -104q0 -57 -34.5 -102.5t-89.5 -57.5v-2q69 -9 110 -56.5t41 -117.5q0 -25 -4 -47.5t-19.5 -52.5t-41.5 -51.5t-75.5 -36.5t-115.5 -15h-302zM140 656v-255h234
q78 0 119.5 34t41.5 87q0 134 -161 134h-234z" />
    <glyph glyph-name="C" unicode="C" horiz-adv-x="704" 
d="M662 498h-68q-18 81 -78.5 127t-140.5 46q-68 0 -121 -27t-84.5 -72t-47.5 -99.5t-16 -115.5t16 -115.5t47.5 -99.5t84.5 -72t121 -27q96 0 157.5 65t71.5 164h68q-14 -132 -93.5 -209.5t-203.5 -77.5q-108 0 -186 53t-114.5 136t-36.5 183t36.5 183t114.5 136t186 53
q107 0 190.5 -62t96.5 -169z" />
    <glyph glyph-name="D" unicode="D" horiz-adv-x="685" 
d="M140 656v-598h145q154 -1 224 69.5t70 229.5t-70 229.5t-224 69.5h-145zM72 0v714h247q328 -8 328 -357t-328 -357h-247z" />
    <glyph glyph-name="E" unicode="E" horiz-adv-x="593" 
d="M72 0v714h493v-58h-425v-258h398v-58h-398v-282h430v-58h-498z" />
    <glyph glyph-name="F" unicode="F" horiz-adv-x="537" 
d="M72 0v714h453v-58h-385v-258h342v-58h-342v-340h-68z" />
    <glyph glyph-name="G" unicode="G" horiz-adv-x="741" 
d="M682 363v-363h-49l-9 130h-2q-34 -73 -99.5 -109t-147.5 -36q-108 0 -186 53t-114.5 136t-36.5 183t36.5 183t114.5 136t186 53q116 0 197.5 -61.5t100.5 -175.5h-68q-7 68 -70.5 123.5t-159.5 55.5q-68 0 -121 -27t-84.5 -72t-47.5 -99.5t-16 -115.5t16 -115.5
t47.5 -99.5t84.5 -72t121 -27q116 0 182.5 73t64.5 189h-243v58h303z" />
    <glyph glyph-name="H" unicode="H" horiz-adv-x="704" 
d="M72 0v714h68v-310h424v310h68v-714h-68v346h-424v-346h-68z" />
    <glyph glyph-name="I" unicode="I" horiz-adv-x="222" 
d="M77 0v714h68v-714h-68z" />
    <glyph glyph-name="J" unicode="J" horiz-adv-x="500" 
d="M360 228v486h68v-515q0 -111 -47.5 -162.5t-160.5 -51.5q-201 0 -199 244h68q3 -78 13 -108q28 -78 124 -78q77 0 105.5 42t28.5 143z" />
    <glyph glyph-name="K" unicode="K" horiz-adv-x="648" 
d="M72 0v714h68v-384l415 384h92l-319 -295l334 -419h-88l-297 372l-137 -127v-245h-68z" />
    <glyph glyph-name="L" unicode="L" horiz-adv-x="537" 
d="M72 0v714h68v-656h400v-58h-468z" />
    <glyph glyph-name="M" unicode="M" horiz-adv-x="833" 
d="M70 0v714h100l247 -626l246 626h100v-714h-68v617h-2l-244 -617h-64l-245 617h-2v-617h-68z" />
    <glyph glyph-name="N" unicode="N" horiz-adv-x="704" 
d="M71 0v714h76l416 -604h2v604h68v-714h-76l-416 604h-2v-604h-68z" />
    <glyph glyph-name="O" unicode="O" horiz-adv-x="741" 
d="M34 357q0 100 36.5 183t114.5 136t186 53q81 0 146.5 -30.5t106 -82.5t62 -118.5t21.5 -140.5t-21.5 -140.5t-62 -118.5t-106 -82.5t-146.5 -30.5q-108 0 -186 53t-114.5 136t-36.5 183zM102 357q0 -61 16 -115.5t47.5 -99.5t84.5 -72t121 -27t121 27t84 72t47 99.5
t16 115.5t-16 115.5t-47 99.5t-84 72t-121 27t-121 -27t-84.5 -72t-47.5 -99.5t-16 -115.5z" />
    <glyph glyph-name="P" unicode="P" horiz-adv-x="630" 
d="M72 0v714h317q97 0 154.5 -54t57.5 -150t-57.5 -150t-154.5 -54h-249v-306h-68zM140 656v-292h234q73 0 116 37.5t43 108.5t-43 108.5t-116 37.5h-234z" />
    <glyph glyph-name="Q" unicode="Q" horiz-adv-x="741" 
d="M444 192l104 -79q91 87 91 244q0 61 -16 115.5t-47 99.5t-84 72t-121 27t-121 -27t-84.5 -72t-47.5 -99.5t-16 -115.5t16 -115.5t47.5 -99.5t84.5 -72t121 -27q77 0 132 35l-94 71zM701 -4l-34 -42l-111 84q-76 -53 -185 -53q-108 0 -186 53t-114.5 136t-36.5 183
t36.5 183t114.5 136t186 53q81 0 146.5 -30.5t106 -82.5t62 -118.5t21.5 -140.5q0 -179 -108 -283z" />
    <glyph glyph-name="R" unicode="R" horiz-adv-x="667" 
d="M72 0v714h327q95 0 156 -47t61 -139q0 -70 -36 -119.5t-103 -62.5v-2q65 -8 93 -49.5t32 -111.5q0 -3 1.5 -33t3 -44t4.5 -38.5t9 -41t15 -26.5h-75q-5 8 -8.5 18.5t-5 25t-2.5 23t-2 25t-1 19.5q-2 28 -3 43.5t-5 41t-10 40.5t-16.5 33t-24.5 27.5t-35.5 15.5t-48.5 5
h-258v-317h-68zM140 656v-281h254q65 0 109.5 38t44.5 101q0 67 -39.5 104.5t-114.5 37.5h-254z" />
    <glyph glyph-name="S" unicode="S" horiz-adv-x="630" 
d="M36 235h68q-4 -192 233 -192q41 0 82.5 13.5t74 48.5t32.5 83q0 93 -147 129l-159 39q-74 19 -117.5 57.5t-43.5 114.5q0 30 11 61.5t36 64.5t76.5 54t122.5 21q112 0 188.5 -58.5t75.5 -163.5h-68q-3 78 -59 121t-136 43q-78 0 -128.5 -34t-50.5 -108q0 -83 108 -109
l174 -43q42 -11 72.5 -24.5t57.5 -35t41 -54t14 -74.5q0 -20 -3.5 -40.5t-20 -52t-43.5 -54.5t-80.5 -40t-125.5 -17q-134 0 -212.5 62.5t-72.5 187.5z" />
    <glyph glyph-name="T" unicode="T" 
d="M-5 656v58h566v-58h-249v-656h-68v656h-249z" />
    <glyph glyph-name="U" unicode="U" horiz-adv-x="685" 
d="M65 257v457h68v-442q-1 -120 53 -174.5t156 -54.5q103 0 157 54.5t53 174.5v442h68v-457q0 -120 -68.5 -196t-209.5 -76q-140 0 -208.5 76.5t-68.5 195.5z" />
    <glyph glyph-name="V" unicode="V" horiz-adv-x="593" 
d="M258 0l-265 714h73l232 -639h2l230 639h72l-265 -714h-79z" />
    <glyph glyph-name="W" unicode="W" horiz-adv-x="907" 
d="M198 0l-198 714h73l162 -625h2l174 625h85l175 -625h2l163 625h68l-197 -714h-72l-181 639h-2l-180 -639h-74z" />
    <glyph glyph-name="X" unicode="X" horiz-adv-x="574" 
d="M245 368l-242 346h80l202 -299l209 299h76l-244 -348l258 -366h-82l-217 315l-220 -315h-77z" />
    <glyph glyph-name="Y" unicode="Y" horiz-adv-x="611" 
d="M271 0v294l-281 420h81l235 -362l234 362h81l-282 -420v-294h-68z" />
    <glyph glyph-name="Z" unicode="Z" horiz-adv-x="574" 
d="M37 656v58h514v-60l-470 -596h480v-58h-556v60l470 596h-438z" />
    <glyph glyph-name="bracketleft" unicode="[" horiz-adv-x="241" 
d="M237 -191h-161v920h161v-53h-98v-814h98v-53z" />
    <glyph glyph-name="backslash" unicode="\" horiz-adv-x="333" 
d="M346 -15h-54l-305 744h51z" />
    <glyph glyph-name="bracketright" unicode="]" horiz-adv-x="241" 
d="M4 729h161v-920h-161v53h98v814h-98v53z" />
    <glyph glyph-name="asciicircum" unicode="^" horiz-adv-x="600" 
d="M102 238h-58l230 453h52l230 -453h-57l-200 390z" />
    <glyph glyph-name="underscore" unicode="_" horiz-adv-x="500" 
d="M500 -125h-500v50h500v-50z" />
    <glyph glyph-name="grave" unicode="`" horiz-adv-x="185" 
d="M101 588l-132 141h78l105 -141h-51z" />
    <glyph glyph-name="a" unicode="a" horiz-adv-x="519" 
d="M390 200v82h-2q-8 -15 -53 -23q-18 -3 -54 -8.5t-56.5 -8.5t-48.5 -11.5t-43 -19t-26.5 -29t-11.5 -42.5q0 -45 34.5 -73.5t80.5 -28.5q75 0 128 44.5t52 117.5zM117 358h-63q4 87 60 130t149 43q190 0 190 -166v-274q0 -38 37 -38q10 0 20 4v-53q-19 -4 -41 -4
q-45 0 -59.5 22t-14.5 68h-2q-36 -55 -77 -80t-111 -25q-76 0 -124.5 38.5t-48.5 112.5q0 39 14.5 67.5t35.5 44t57.5 26.5t65.5 15.5t76 9.5q6 0 9.5 0.5t9 1t9.5 1.5q45 5 63 18t18 52q0 106 -135 106q-62 0 -99.5 -30t-38.5 -90z" />
    <glyph glyph-name="b" unicode="b" horiz-adv-x="574" 
d="M473 258q0 57 -16.5 105t-56 81.5t-96.5 33.5q-93 0 -137 -64.5t-44 -155.5t44 -155.5t137 -64.5q57 0 96.5 33.5t56 81.5t16.5 105zM60 0v714h63v-296h2q20 54 69.5 83.5t109.5 29.5q112 0 172 -78t60 -195t-60 -195t-172 -78q-63 0 -112.5 30.5t-71.5 82.5h-2v-98h-58z
" />
    <glyph glyph-name="c" unicode="c" horiz-adv-x="519" 
d="M487 354h-63q-27 124 -146 124q-86 0 -133.5 -65.5t-47.5 -154.5t47.5 -154.5t133.5 -65.5q59 0 101.5 41.5t48.5 105.5h63q-13 -93 -70 -146.5t-143 -53.5q-114 0 -179 78.5t-65 194.5t65 194.5t179 78.5q85 0 142 -45.5t67 -131.5z" />
    <glyph glyph-name="d" unicode="d" horiz-adv-x="574" 
d="M101 258q0 -57 16.5 -105t56 -81.5t96.5 -33.5q93 0 137 64.5t44 155.5t-44 155.5t-137 64.5q-57 0 -96.5 -33.5t-56 -81.5t-16.5 -105zM514 714v-714h-58v98h-2q-20 -49 -73 -81t-111 -32q-112 0 -172 78t-60 195t60 195t172 78q60 0 109.5 -29.5t69.5 -83.5h2v296h63z
" />
    <glyph glyph-name="e" unicode="e" horiz-adv-x="519" 
d="M494 241h-397q1 -80 44 -141.5t126 -61.5q128 0 162 132h63q-43 -185 -225 -185q-116 0 -174.5 77t-58.5 196q0 72 23 131.5t77.5 100.5t132.5 41q60 0 106 -24.5t72 -66.5t38.5 -92.5t10.5 -106.5zM97 294h334q-2 76 -46.5 130t-117.5 54t-117.5 -53.5t-52.5 -130.5z
" />
    <glyph glyph-name="f" unicode="f" horiz-adv-x="259" 
d="M259 516v-53h-102v-463h-63v463h-88v53h88v47q-1 73 26.5 112t98.5 39q26 0 53 -4v-54q-28 5 -46 5q-20 0 -34 -6t-20.5 -12t-10 -23.5t-4 -25.5t-0.5 -33v-45h102z" />
    <glyph glyph-name="g" unicode="g" 
d="M267 59q78 0 122 60.5t44 144.5q0 40 -9.5 76.5t-28.5 68t-52 50.5t-76 19q-84 0 -127 -62.5t-43 -151.5q0 -85 44 -145t126 -60zM496 516v-474q-1 -122 -54 -185t-175 -63q-85 0 -146.5 39.5t-67.5 116.5h63q10 -53 51.5 -78t99.5 -25q166 0 166 195v70h-2
q-22 -48 -65.5 -77t-98.5 -29q-118 0 -175.5 73.5t-57.5 191.5q0 111 62.5 185.5t170.5 74.5q55 0 100 -30t64 -74h2v89h63z" />
    <glyph glyph-name="h" unicode="h" horiz-adv-x="537" 
d="M59 0v714h63v-287h2q17 46 63.5 75t101.5 29q104 0 146.5 -50.5t42.5 -148.5v-332h-63v322q0 156 -131 156q-73 0 -116.5 -49.5t-45.5 -127.5v-301h-63z" />
    <glyph glyph-name="i" unicode="i" horiz-adv-x="185" 
d="M61 0v516h63v-516h-63zM61 613v101h63v-101h-63z" />
    <glyph glyph-name="j" unicode="j" horiz-adv-x="185" 
d="M61 -63v579h63v-564q0 -143 -110 -143q-8 0 -22 1t-22 1v52q22 -2 34 -1q34 0 45.5 19t11.5 56zM61 613v101h63v-101h-63z" />
    <glyph glyph-name="k" unicode="k" horiz-adv-x="500" 
d="M60 0v714h63v-448l286 250h84l-220 -191l235 -325h-79l-204 281l-102 -85v-196h-63z" />
    <glyph glyph-name="l" unicode="l" horiz-adv-x="185" 
d="M61 0v714h63v-714h-63z" />
    <glyph glyph-name="m" unicode="m" horiz-adv-x="833" 
d="M60 0v516h58v-87h3q54 102 169 102q53 0 93.5 -26t54.5 -75q22 49 66.5 75t97.5 26q171 0 171 -181v-350h-63v347q0 66 -28.5 98.5t-93.5 32.5q-140 0 -140 -186v-292h-63v350q1 57 -25 92.5t-83 35.5q-78 0 -115.5 -52t-38.5 -138v-288h-63z" />
    <glyph glyph-name="n" unicode="n" horiz-adv-x="537" 
d="M59 0v516h63v-89h2q17 46 63.5 75t101.5 29q104 0 146.5 -50.5t42.5 -148.5v-332h-63v322q0 156 -131 156q-73 0 -116.5 -49.5t-45.5 -127.5v-301h-63z" />
    <glyph glyph-name="o" unicode="o" 
d="M278 531q114 0 179 -78.5t65 -194.5t-65 -194.5t-179 -78.5t-179 78.5t-65 194.5t65 194.5t179 78.5zM278 478q-86 0 -133.5 -65.5t-47.5 -154.5t47.5 -154.5t133.5 -65.5t133.5 65.5t47.5 154.5t-47.5 154.5t-133.5 65.5z" />
    <glyph glyph-name="p" unicode="p" horiz-adv-x="574" 
d="M473 258q0 57 -16.5 105t-56 81.5t-96.5 33.5q-97 0 -139 -61t-42 -159q0 -91 44 -155.5t137 -64.5q57 0 96.5 33.5t56 81.5t16.5 105zM60 -191v707h58v-98h2q22 52 71.5 82.5t112.5 30.5q112 0 172 -78t60 -195t-60 -195t-172 -78q-60 0 -109.5 29.5t-69.5 83.5h-2v-289
h-63z" />
    <glyph glyph-name="q" unicode="q" horiz-adv-x="574" 
d="M101 258q0 -57 16.5 -105t56 -81.5t96.5 -33.5q93 0 137 64.5t44 155.5t-44 155.5t-137 64.5q-57 0 -96.5 -33.5t-56 -81.5t-16.5 -105zM514 516v-707h-63v289h-2q-20 -54 -69.5 -83.5t-109.5 -29.5q-112 0 -172 78t-60 195t60 195t172 78q58 0 111 -32t73 -81h2v98h58z
" />
    <glyph glyph-name="r" unicode="r" horiz-adv-x="315" 
d="M60 0v516h58v-121h2q24 63 75 97t120 31v-63q-84 4 -138 -49.5t-54 -135.5v-275h-63z" />
    <glyph glyph-name="s" unicode="s" horiz-adv-x="481" 
d="M432 365h-63q-2 56 -40 84.5t-95 28.5q-49 0 -85.5 -21.5t-36.5 -67.5q0 -60 107 -87l84 -19q62 -9 104.5 -45t42.5 -98q0 -77 -62.5 -116t-144.5 -39q-93 0 -149 45t-63 137h63q4 -62 45.5 -95.5t106.5 -33.5q53 0 97 24.5t44 73.5q0 41 -30 61t-83 33l-81 18
q-72 19 -108 48t-36 90q0 73 58 109t136 36q81 0 133.5 -42.5t55.5 -123.5z" />
    <glyph glyph-name="t" unicode="t" horiz-adv-x="296" 
d="M160 671v-155h105v-53h-105v-348q0 -34 10 -50t41 -18q27 0 54 3v-54q-9 0 -27.5 -1t-28.5 -1q-63 0 -88 25t-24 91v353h-90v53h90v155h63z" />
    <glyph glyph-name="u" unicode="u" horiz-adv-x="537" 
d="M478 516v-516h-58v93h-2q-24 -51 -72 -79.5t-106 -28.5q-181 0 -181 196v335h63v-336q2 -72 33.5 -107t104.5 -35q76 0 115.5 60.5t39.5 146.5v271h63z" />
    <glyph glyph-name="v" unicode="v" horiz-adv-x="463" 
d="M201 0l-199 516h70l162 -453h2l160 453h65l-193 -516h-67z" />
    <glyph glyph-name="w" unicode="w" horiz-adv-x="741" 
d="M174 0l-166 516h67l132 -442h2l126 442h71l126 -442h2l132 442h67l-166 -516h-69l-127 434h-2l-126 -434h-69z" />
    <glyph glyph-name="x" unicode="x" horiz-adv-x="481" 
d="M1 0l200 268l-185 248h79l147 -196l144 196h79l-186 -247l201 -269h-80l-162 217l-159 -217h-78z" />
    <glyph glyph-name="y" unicode="y" horiz-adv-x="463" 
d="M208 2l-206 514h67l170 -440l159 440h63l-224 -595q-28 -68 -53.5 -90t-82.5 -22q-39 2 -48 5v53q25 -5 43 -5q20 0 34 5t24.5 18.5t15.5 23.5t16 34z" />
    <glyph glyph-name="z" unicode="z" horiz-adv-x="463" 
d="M432 471l-341 -418h355v-53h-431v51l337 412h-314v53h394v-45z" />
    <glyph glyph-name="braceleft" unicode="{" horiz-adv-x="333" 
d="M293 -191h-50q-42 0 -65 33.5t-23 91.5v148q0 160 -72 160v53q72 0 72 160v149q0 58 23 91.5t65 33.5h50v-53h-20q-55 0 -55 -103v-141q0 -49 -15.5 -88t-29.5 -53.5t-25 -20.5v-2q11 -6 25 -20.5t29.5 -53.5t15.5 -88v-141q0 -103 55 -103h20v-53z" />
    <glyph glyph-name="bar" unicode="|" horiz-adv-x="222" 
d="M85 -214v1000h53v-1000h-53z" />
    <glyph glyph-name="braceright" unicode="}" horiz-adv-x="333" 
d="M40 729h50q42 0 65 -33.5t23 -91.5v-148q0 -160 72 -160v-53q-72 0 -72 -160v-149q0 -58 -23 -91.5t-65 -33.5h-50v53h20q55 0 55 103v141q0 49 15.5 88t29.5 53.5t25 20.5v2q-11 6 -25 20.5t-29.5 53.5t-15.5 88v141q0 103 -55 103h-20v53z" />
    <glyph glyph-name="asciitilde" unicode="~" horiz-adv-x="600" 
d="M495 315l36 -36q-20 -27 -33 -42t-38 -29.5t-54 -14.5q-42 0 -110 33q-70 32 -107 32q-52 0 -84 -69l-36 36q45 86 125 86q41 0 115 -32q74 -33 98 -33q27 0 46.5 18t41.5 51z" />
    <glyph glyph-name="uni00A0" unicode="&#xa0;" horiz-adv-x="278" 
 />
    <glyph glyph-name="exclamdown" unicode="&#xa1;" horiz-adv-x="241" 
d="M140 338l15 -323v-206h-68v206l15 323h38zM79 516h84v-106h-84v106z" />
    <glyph glyph-name="cent" unicode="&#xa2;" 
d="M270 39v437q-73 -11 -113 -73.5t-40 -144.5q0 -81 40 -144.5t113 -74.5zM507 354h-63q-26 120 -135 124v-440q55 3 94 44.5t45 102.5h63q-12 -90 -66 -143.5t-136 -56.5v-101h-39v102q-102 10 -159 86.5t-57 185.5t57.5 185.5t158.5 85.5v89h39v-87q80 -2 134 -48
t64 -129z" />
    <glyph glyph-name="sterling" unicode="&#xa3;" 
d="M46 330v32h63q-55 90 -55 161q0 101 66.5 153.5t161.5 52.5q110 0 172 -63.5t60 -173.5h-63q0 83 -43.5 133.5t-125.5 50.5q-69 0 -117 -40.5t-48 -116.5q0 -31 8.5 -55t25.5 -54.5t25 -47.5h160v-32h-142q24 -38 24 -97q0 -94 -110 -182l2 -2q58 30 97 30q48 0 102 -20
q53 -21 86 -21q64 0 115 56l32 -48q-69 -61 -146 -61q-47 0 -106 19q-60 22 -101 22q-14 0 -25.5 -1.5t-25 -7t-17.5 -7.5t-21.5 -12.5t-20.5 -12.5l-36 54q112 88 112 186q0 58 -28 105h-81z" />
    <glyph glyph-name="currency" unicode="&#xa4;" 
d="M29 136l57 57q-55 66 -55 153q0 86 54 154l-56 56l38 38l56 -56q68 56 156 56q87 0 153 -55l55 55l38 -38l-54 -54q56 -67 56 -156t-56 -156l54 -54l-38 -38l-55 55q-64 -55 -153 -55t-156 56l-56 -56zM94 346q0 -80 54 -135t131 -55t131 55t54 135t-54 135t-131 55
t-131 -55t-54 -135z" />
    <glyph glyph-name="yen" unicode="&#xa5;" 
d="M110 304v45h106l-210 365h72l199 -365l201 365h69l-211 -365h109v-45h-131l-6 -10v-73h137v-45h-137v-176h-63v176h-135v45h135v73l-6 10h-129z" />
    <glyph glyph-name="brokenbar" unicode="&#xa6;" horiz-adv-x="222" 
d="M85 -89v250h53v-250h-53zM85 411v250h53v-250h-53z" />
    <glyph glyph-name="section" unicode="&#xa7;" 
d="M448 230q0 37 -30 71t-65.5 54.5t-87.5 48t-75 43.5q-82 -34 -82 -108q0 -35 29.5 -69t65 -55t87.5 -49.5t74 -43.5q84 35 84 108zM511 231q0 -47 -31 -84.5t-78 -55.5q50 -44 50 -109t-51 -104t-118 -39q-85 0 -135 46.5t-50 130.5h63q-2 -52 31 -88t85 -36
q47 0 79.5 22.5t32.5 66.5q0 41 -35.5 75t-86 59.5t-101 53.5t-86 71t-35.5 97q0 47 31 84.5t78 55.5q-50 44 -50 109t51 104t118 39q85 0 135 -46.5t50 -130.5h-63q2 52 -31 88t-85 36q-47 0 -79.5 -22.5t-32.5 -66.5q0 -41 35.5 -75t86 -59.5t101 -53.5t86 -71t35.5 -97z
" />
    <glyph glyph-name="dieresis" unicode="&#xa8;" horiz-adv-x="185" 
d="M215 605h-68v101h68v-101zM38 605h-68v101h68v-101z" />
    <glyph glyph-name="copyright" unicode="&#xa9;" horiz-adv-x="800" 
d="M772 357q0 -157 -107.5 -264.5t-264.5 -107.5t-264.5 107.5t-107.5 264.5t107.5 264.5t264.5 107.5t264.5 -107.5t107.5 -264.5zM714 357q0 134 -90 226.5t-224 92.5t-224 -92.5t-90 -226.5t90 -226.5t224 -92.5t224 92.5t90 226.5zM594 435h-51q-9 46 -44.5 75.5
t-88.5 30.5q-78 0 -121.5 -51.5t-43.5 -132.5t43.5 -132.5t121.5 -51.5q53 0 88.5 29.5t44.5 76.5h51q-9 -71 -60.5 -111t-124.5 -40q-100 0 -158.5 64t-58.5 165t58.5 165t158.5 64q73 0 124.5 -40t60.5 -111z" />
    <glyph glyph-name="ordfeminine" unicode="&#xaa;" horiz-adv-x="311" 
d="M228 502v47h-2q-4 -9 -34 -14q-12 -2 -33.5 -5t-32 -4.5t-27 -5t-24.5 -8t-17 -10.5t-12.5 -15t-3.5 -21q0 -25 22 -42t47 -17q49 0 83.5 26t33.5 69zM54 597h-47q6 109 140 109q27 0 48 -4t40.5 -14.5t29.5 -31t10 -50.5v-172q2 -23 25 -23q7 0 13 3v-34q-21 -3 -27 -3
q-29 0 -38.5 13t-9.5 43h-2q-41 -65 -123 -65q-53 0 -85.5 23.5t-32.5 72.5q0 41 28 64t53 28t83 11q5 1 8.5 1.5t7.5 0.5q29 3 41 9t12 22q0 67 -88 67q-37 0 -61 -18t-25 -52z" />
    <glyph glyph-name="guillemotleft" unicode="&#xab;" horiz-adv-x="426" 
d="M354 119l-133 125v62l133 125v-67l-94 -89l94 -89v-67zM193 119l-133 125v62l133 125v-67l-94 -89l94 -89v-67z" />
    <glyph glyph-name="logicalnot" unicode="&#xac;" horiz-adv-x="600" 
d="M499 111v214h-450v53h503v-267h-53z" />
    <glyph glyph-name="uni00AD" unicode="&#xad;" horiz-adv-x="370" 
d="M310 246h-250v58h250v-58z" />
    <glyph glyph-name="registered" unicode="&#xae;" horiz-adv-x="800" 
d="M400 729q157 0 264.5 -107.5t107.5 -264.5t-107.5 -264.5t-264.5 -107.5t-264.5 107.5t-107.5 264.5t107.5 264.5t264.5 107.5zM400 676q-134 0 -224 -92.5t-90 -226.5t90 -226.5t224 -92.5t224 92.5t90 226.5t-90 226.5t-224 92.5zM318 333v-191h-53v430h165
q140 0 140 -119q0 -101 -108 -120l128 -191h-62l-121 191h-89zM318 378h70q25 0 39 0.5t33.5 4.5t30 12t18.5 22.5t8 35.5q0 74 -102 74h-97v-149z" />
    <glyph glyph-name="macron" unicode="&#xaf;" horiz-adv-x="185" 
d="M257 634h-329v45h329v-45z" />
    <glyph glyph-name="degree" unicode="&#xb0;" horiz-adv-x="400" 
d="M56 562q0 60 42 102t102 42t102 -42t42 -102t-42 -102t-102 -42t-102 42t-42 102zM95 562q0 -44 30.5 -74.5t74.5 -30.5t74.5 30.5t30.5 74.5t-30.5 74.5t-74.5 30.5t-74.5 -30.5t-30.5 -74.5z" />
    <glyph glyph-name="plusminus" unicode="&#xb1;" horiz-adv-x="600" 
d="M274 323v180h53v-180h225v-53h-225v-180h-53v180h-224v53h224zM49 0v53h503v-53h-503z" />
    <glyph glyph-name="twosuperior" unicode="&#xb2;" horiz-adv-x="333" 
d="M71 553h-47q-2 71 36 112t114 41q66 0 106 -32t40 -93q0 -48 -31 -82.5t-84 -66.5q-7 -4 -36 -21t-43.5 -27t-32.5 -30t-24 -41h248v-39h-302q1 37 16 66.5t41 51t52 38t58.5 37t51.5 38.5q39 37 39 80q0 37 -30 59.5t-73 22.5q-50 0 -75 -33t-24 -81z" />
    <glyph glyph-name="threesuperior" unicode="&#xb3;" horiz-adv-x="333" 
d="M135 478v39h35q35 0 64 19.5t29 54.5q0 37 -28 56.5t-70 19.5q-48 0 -74.5 -29t-25.5 -74h-47q1 64 40 103t107 39q61 0 103 -28t42 -83q0 -35 -20.5 -60t-56.5 -33v-2q44 -6 69 -33.5t25 -69.5q0 -62 -46 -97t-115 -35q-75 0 -119 39t-39 108h47q-2 -48 28 -78t82 -30
q46 0 80.5 24.5t34.5 65.5q0 40 -31.5 62t-78.5 22h-35z" />
    <glyph glyph-name="acute" unicode="&#xb4;" horiz-adv-x="185" 
d="M216 729l-132 -141h-51l105 141h78z" />
    <glyph glyph-name="mu" unicode="&#xb5;" horiz-adv-x="537" 
d="M478 516v-516h-58v93h-2q-24 -51 -72 -79.5t-106 -28.5q-70 0 -117 35v-211h-64v707h63v-336q2 -72 33.5 -107t104.5 -35q76 0 115.5 60.5t39.5 146.5v271h63z" />
    <glyph glyph-name="paragraph" unicode="&#xb6;" horiz-adv-x="600" 
d="M273 -177v505q-87 0 -147 56t-60 134q0 94 58.5 145t164.5 51h230v-891h-63v838h-120v-838h-63z" />
    <glyph glyph-name="periodcentered" unicode="&#xb7;" horiz-adv-x="278" 
d="M139 375q24 0 41.5 -18t17.5 -42q0 -23 -18 -40.5t-41 -17.5q-24 0 -41.5 18t-17.5 42q0 22 18 40t41 18z" />
    <glyph glyph-name="cedilla" unicode="&#xb8;" horiz-adv-x="185" 
d="M91 0h35l-44 -58q43 8 79.5 -6t36.5 -56t-33.5 -64t-76.5 -22q-51 0 -94 21l14 32q34 -14 79 -14q23 0 38 11t15 32q0 17 -12.5 27.5t-30.5 10.5q-35 0 -51 -8l-16 15z" />
    <glyph glyph-name="onesuperior" unicode="&#xb9;" horiz-adv-x="333" 
d="M35 584v39q33 1 49.5 3t35.5 9t28.5 22t14.5 40h40v-423h-47v310h-121z" />
    <glyph glyph-name="ordmasculine" unicode="&#xba;" horiz-adv-x="334" 
d="M162 368q-75 0 -117 48t-42 121t42 121t117 48q81 0 125 -47.5t44 -121.5t-44 -121.5t-125 -47.5zM167 407q55 0 86 39t31 91t-31 91t-86 39t-86 -39t-31 -91t31 -91t86 -39z" />
    <glyph glyph-name="guillemotright" unicode="&#xbb;" horiz-adv-x="426" 
d="M233 119v67l94 89l-94 89v67l133 -125v-62zM72 119v67l94 89l-94 89v67l133 -125v-62z" />
    <glyph glyph-name="onequarter" unicode="&#xbc;" horiz-adv-x="834" 
d="M642 0v100h-210v39l213 284h44v-284h68v-39h-68v-100h-47zM640 355l-162 -216h164v216h-2zM133 -34l453 759h47l-452 -759h-48zM48 584v39q33 1 49.5 3t35.5 9t28.5 22t14.5 40h40v-423h-47v310h-121z" />
    <glyph glyph-name="onehalf" unicode="&#xbd;" horiz-adv-x="834" 
d="M133 -34l453 759h47l-452 -759h-48zM48 584v39q33 1 49.5 3t35.5 9t28.5 22t14.5 40h40v-423h-47v310h-121zM536 279h-47q-2 71 36 112t114 41q66 0 106 -32t40 -93q0 -48 -31 -82.5t-84 -66.5q-7 -4 -36 -21t-43.5 -27t-32.5 -30t-24 -41h248v-39h-302q1 37 16 66.5
t41 51t52 38t58.5 37t51.5 38.5q39 37 39 80q0 37 -30 59.5t-73 22.5q-50 0 -75 -33t-24 -81z" />
    <glyph glyph-name="threequarters" unicode="&#xbe;" horiz-adv-x="834" 
d="M642 0v100h-210v39l213 284h44v-284h68v-39h-68v-100h-47zM640 355l-162 -216h164v216h-2zM135 478v39h35q35 0 64 19.5t29 54.5q0 37 -28 56.5t-70 19.5q-48 0 -74.5 -29t-25.5 -74h-47q1 64 40 103t107 39q61 0 103 -28t42 -83q0 -35 -20.5 -60t-56.5 -33v-2
q44 -6 69 -33.5t25 -69.5q0 -62 -46 -97t-115 -35q-75 0 -119 39t-39 108h47q-2 -48 28 -78t82 -30q46 0 80.5 24.5t34.5 65.5q0 40 -31.5 62t-78.5 22h-35zM173 -34l453 759h47l-452 -759h-48z" />
    <glyph glyph-name="questiondown" unicode="&#xbf;" horiz-adv-x="537" 
d="M421 29h63q-1 -108 -60.5 -171.5t-166.5 -63.5q-86 0 -144.5 50.5t-58.5 134.5q0 52 22 91t65 79q11 11 28 27.5t22 22.5t15.5 16.5t12.5 17.5t6.5 17.5t5 24t1.5 29t2 40.5h63q1 -46 -4 -76.5t-22.5 -58.5t-33.5 -45t-55 -53q-65 -61 -65 -129q0 -59 41.5 -97t101.5 -38
q79 0 121 50.5t40 131.5zM307 516v-106h-84v106h84z" />
    <glyph glyph-name="Agrave" unicode="&#xc0;" horiz-adv-x="630" 
d="M-7 0l288 714h76l280 -714h-73l-87 222h-325l-86 -222h-73zM316 646l-143 -366h281zM324 771l-132 141h78l105 -141h-51z" />
    <glyph glyph-name="Aacute" unicode="&#xc1;" horiz-adv-x="630" 
d="M-7 0l288 714h76l280 -714h-73l-87 222h-325l-86 -222h-73zM316 646l-143 -366h281zM439 912l-132 -141h-51l105 141h78z" />
    <glyph glyph-name="Acircumflex" unicode="&#xc2;" horiz-adv-x="630" 
d="M-7 0l288 714h76l280 -714h-73l-87 222h-325l-86 -222h-73zM316 646l-143 -366h281zM350 912l114 -141h-65l-86 102l-88 -102h-58l114 141h69z" />
    <glyph glyph-name="Atilde" unicode="&#xc3;" horiz-adv-x="630" 
d="M-7 0l288 714h76l280 -714h-73l-87 222h-325l-86 -222h-73zM316 646l-143 -366h281zM434 891h38q-6 -39 -28.5 -67t-58.5 -28q-29 0 -75 22q-50 24 -60 24q-23 0 -38 -13.5t-15 -37.5h-39q5 39 28.5 67.5t60.5 28.5q31 0 75 -22t60 -22q37 0 52 48z" />
    <glyph glyph-name="Adieresis" unicode="&#xc4;" horiz-adv-x="630" 
d="M-7 0l288 714h76l280 -714h-73l-87 222h-325l-86 -222h-73zM316 646l-143 -366h281zM438 788h-68v101h68v-101zM261 788h-68v101h68v-101z" />
    <glyph glyph-name="Aring" unicode="&#xc5;" horiz-adv-x="630" 
d="M-7 0l288 714h76l280 -714h-73l-87 222h-325l-86 -222h-73zM316 646l-143 -366h281zM209 860q0 44 31.5 75.5t75.5 31.5t75.5 -31.5t31.5 -75.5t-31.5 -75.5t-75.5 -31.5t-75.5 31.5t-31.5 75.5zM248 860q0 -28 20 -48t48 -20t48 20t20 48t-20 48t-48 20t-48 -20t-20 -48
z" />
    <glyph glyph-name="AE" unicode="&#xc6;" horiz-adv-x="907" 
d="M513 340v-282h371v-58h-439v226h-259l-116 -226h-77l374 714h513v-58h-367v-258h344v-58h-344zM216 284h229v372h-40z" />
    <glyph glyph-name="Ccedilla" unicode="&#xc7;" horiz-adv-x="704" 
d="M604 272h68q-14 -132 -93.5 -209.5t-203.5 -77.5h-1l-33 -43q43 8 79.5 -6t36.5 -56t-33.5 -64t-76.5 -22q-51 0 -94 21l14 32q34 -14 79 -14q23 0 38 11t15 32q0 17 -12.5 27.5t-30.5 10.5q-35 0 -51 -8l-16 15l51 66q-97 8 -167 62t-102.5 133.5t-32.5 174.5
q0 100 36.5 183t114.5 136t186 53q107 0 190.5 -62t96.5 -169h-68q-18 81 -78.5 127t-140.5 46q-68 0 -121 -27t-84.5 -72t-47.5 -99.5t-16 -115.5t16 -115.5t47.5 -99.5t84.5 -72t121 -27q96 0 157.5 65t71.5 164z" />
    <glyph glyph-name="Egrave" unicode="&#xc8;" horiz-adv-x="593" 
d="M72 0v714h493v-58h-425v-258h398v-58h-398v-282h430v-58h-498zM305 771l-132 141h78l105 -141h-51z" />
    <glyph glyph-name="Eacute" unicode="&#xc9;" horiz-adv-x="593" 
d="M72 0v714h493v-58h-425v-258h398v-58h-398v-282h430v-58h-498zM420 912l-132 -141h-51l105 141h78z" />
    <glyph glyph-name="Ecircumflex" unicode="&#xca;" horiz-adv-x="593" 
d="M72 0v714h493v-58h-425v-258h398v-58h-398v-282h430v-58h-498zM331 912l114 -141h-65l-86 102l-88 -102h-58l114 141h69z" />
    <glyph glyph-name="Edieresis" unicode="&#xcb;" horiz-adv-x="593" 
d="M72 0v714h493v-58h-425v-258h398v-58h-398v-282h430v-58h-498zM419 788h-68v101h68v-101zM242 788h-68v101h68v-101z" />
    <glyph glyph-name="Igrave" unicode="&#xcc;" horiz-adv-x="222" 
d="M77 0v714h68v-714h-68zM120 771l-132 141h78l105 -141h-51z" />
    <glyph glyph-name="Iacute" unicode="&#xcd;" horiz-adv-x="222" 
d="M77 0v714h68v-714h-68zM235 912l-132 -141h-51l105 141h78z" />
    <glyph glyph-name="Icircumflex" unicode="&#xce;" horiz-adv-x="222" 
d="M77 0v714h68v-714h-68zM146 912l114 -141h-65l-86 102l-88 -102h-58l114 141h69z" />
    <glyph glyph-name="Idieresis" unicode="&#xcf;" horiz-adv-x="222" 
d="M77 0v714h68v-714h-68zM234 788h-68v101h68v-101zM57 788h-68v101h68v-101z" />
    <glyph glyph-name="Eth" unicode="&#xd0;" horiz-adv-x="685" 
d="M140 656v-263h236v-45h-236v-290h145q154 -1 224 69.5t70 229.5t-70 229.5t-224 69.5h-145zM72 393v321h247q328 -8 328 -357t-328 -357h-247v348h-72v45h72z" />
    <glyph glyph-name="Ntilde" unicode="&#xd1;" horiz-adv-x="704" 
d="M71 0v714h76l416 -604h2v604h68v-714h-76l-416 604h-2v-604h-68zM471 891h38q-6 -39 -28.5 -67t-58.5 -28q-29 0 -75 22q-50 24 -60 24q-23 0 -38 -13.5t-15 -37.5h-39q5 39 28.5 67.5t60.5 28.5q31 0 75 -22t60 -22q37 0 52 48z" />
    <glyph glyph-name="Ograve" unicode="&#xd2;" horiz-adv-x="741" 
d="M34 357q0 100 36.5 183t114.5 136t186 53q81 0 146.5 -30.5t106 -82.5t62 -118.5t21.5 -140.5t-21.5 -140.5t-62 -118.5t-106 -82.5t-146.5 -30.5q-108 0 -186 53t-114.5 136t-36.5 183zM102 357q0 -61 16 -115.5t47.5 -99.5t84.5 -72t121 -27t121 27t84 72t47 99.5
t16 115.5t-16 115.5t-47 99.5t-84 72t-121 27t-121 -27t-84.5 -72t-47.5 -99.5t-16 -115.5zM379 771l-132 141h78l105 -141h-51z" />
    <glyph glyph-name="Oacute" unicode="&#xd3;" horiz-adv-x="741" 
d="M34 357q0 100 36.5 183t114.5 136t186 53q81 0 146.5 -30.5t106 -82.5t62 -118.5t21.5 -140.5t-21.5 -140.5t-62 -118.5t-106 -82.5t-146.5 -30.5q-108 0 -186 53t-114.5 136t-36.5 183zM102 357q0 -61 16 -115.5t47.5 -99.5t84.5 -72t121 -27t121 27t84 72t47 99.5
t16 115.5t-16 115.5t-47 99.5t-84 72t-121 27t-121 -27t-84.5 -72t-47.5 -99.5t-16 -115.5zM494 912l-132 -141h-51l105 141h78z" />
    <glyph glyph-name="Ocircumflex" unicode="&#xd4;" horiz-adv-x="741" 
d="M34 357q0 100 36.5 183t114.5 136t186 53q81 0 146.5 -30.5t106 -82.5t62 -118.5t21.5 -140.5t-21.5 -140.5t-62 -118.5t-106 -82.5t-146.5 -30.5q-108 0 -186 53t-114.5 136t-36.5 183zM102 357q0 -61 16 -115.5t47.5 -99.5t84.5 -72t121 -27t121 27t84 72t47 99.5
t16 115.5t-16 115.5t-47 99.5t-84 72t-121 27t-121 -27t-84.5 -72t-47.5 -99.5t-16 -115.5zM405 912l114 -141h-65l-86 102l-88 -102h-58l114 141h69z" />
    <glyph glyph-name="Otilde" unicode="&#xd5;" horiz-adv-x="741" 
d="M34 357q0 100 36.5 183t114.5 136t186 53q81 0 146.5 -30.5t106 -82.5t62 -118.5t21.5 -140.5t-21.5 -140.5t-62 -118.5t-106 -82.5t-146.5 -30.5q-108 0 -186 53t-114.5 136t-36.5 183zM102 357q0 -61 16 -115.5t47.5 -99.5t84.5 -72t121 -27t121 27t84 72t47 99.5
t16 115.5t-16 115.5t-47 99.5t-84 72t-121 27t-121 -27t-84.5 -72t-47.5 -99.5t-16 -115.5zM489 891h38q-6 -39 -28.5 -67t-58.5 -28q-29 0 -75 22q-50 24 -60 24q-23 0 -38 -13.5t-15 -37.5h-39q5 39 28.5 67.5t60.5 28.5q31 0 75 -22t60 -22q37 0 52 48z" />
    <glyph glyph-name="Odieresis" unicode="&#xd6;" horiz-adv-x="741" 
d="M34 357q0 100 36.5 183t114.5 136t186 53q81 0 146.5 -30.5t106 -82.5t62 -118.5t21.5 -140.5t-21.5 -140.5t-62 -118.5t-106 -82.5t-146.5 -30.5q-108 0 -186 53t-114.5 136t-36.5 183zM102 357q0 -61 16 -115.5t47.5 -99.5t84.5 -72t121 -27t121 27t84 72t47 99.5
t16 115.5t-16 115.5t-47 99.5t-84 72t-121 27t-121 -27t-84.5 -72t-47.5 -99.5t-16 -115.5zM493 788h-68v101h68v-101zM316 788h-68v101h68v-101z" />
    <glyph glyph-name="multiply" unicode="&#xd7;" horiz-adv-x="600" 
d="M262 251l-188 189l37 37l189 -189l189 189l37 -37l-189 -189l189 -189l-37 -37l-189 188l-189 -188l-37 37z" />
    <glyph glyph-name="Oslash" unicode="&#xd8;" horiz-adv-x="741" 
d="M580 565l-397 -443q71 -79 188 -79q68 0 121 27t84 72t47 99.5t16 115.5q0 126 -59 208zM160 150l398 443q-71 78 -187 78q-68 0 -121 -27t-84.5 -72t-47.5 -99.5t-16 -115.5q0 -124 58 -207zM672 719l26 -23l-73 -81q82 -101 82 -258q0 -74 -21.5 -140.5t-62 -118.5
t-106 -82.5t-146.5 -30.5q-142 0 -231 89l-76 -86l-27 25l79 88q-82 103 -82 256q0 100 36.5 183t114.5 136t186 53q140 0 230 -88z" />
    <glyph glyph-name="Ugrave" unicode="&#xd9;" horiz-adv-x="685" 
d="M65 257v457h68v-442q-1 -120 53 -174.5t156 -54.5q103 0 157 54.5t53 174.5v442h68v-457q0 -120 -68.5 -196t-209.5 -76q-140 0 -208.5 76.5t-68.5 195.5zM351 771l-132 141h78l105 -141h-51z" />
    <glyph glyph-name="Uacute" unicode="&#xda;" horiz-adv-x="685" 
d="M65 257v457h68v-442q-1 -120 53 -174.5t156 -54.5q103 0 157 54.5t53 174.5v442h68v-457q0 -120 -68.5 -196t-209.5 -76q-140 0 -208.5 76.5t-68.5 195.5zM466 912l-132 -141h-51l105 141h78z" />
    <glyph glyph-name="Ucircumflex" unicode="&#xdb;" horiz-adv-x="685" 
d="M65 257v457h68v-442q-1 -120 53 -174.5t156 -54.5q103 0 157 54.5t53 174.5v442h68v-457q0 -120 -68.5 -196t-209.5 -76q-140 0 -208.5 76.5t-68.5 195.5zM377 912l114 -141h-65l-86 102l-88 -102h-58l114 141h69z" />
    <glyph glyph-name="Udieresis" unicode="&#xdc;" horiz-adv-x="685" 
d="M65 257v457h68v-442q-1 -120 53 -174.5t156 -54.5q103 0 157 54.5t53 174.5v442h68v-457q0 -120 -68.5 -196t-209.5 -76q-140 0 -208.5 76.5t-68.5 195.5zM465 788h-68v101h68v-101zM288 788h-68v101h68v-101z" />
    <glyph glyph-name="Yacute" unicode="&#xdd;" horiz-adv-x="611" 
d="M271 0v294l-281 420h81l235 -362l234 362h81l-282 -420v-294h-68zM429 912l-132 -141h-51l105 141h78z" />
    <glyph glyph-name="Thorn" unicode="&#xde;" horiz-adv-x="630" 
d="M72 0v714h68v-117h249q97 0 154.5 -54t57.5 -150t-57.5 -150t-154.5 -54h-249v-189h-68zM140 539v-292h234q73 0 116 37.5t43 108.5t-43 108.5t-116 37.5h-234z" />
    <glyph glyph-name="germandbls" unicode="&#xdf;" horiz-adv-x="537" 
d="M61 0v535q0 96 53.5 145t145.5 49q84 0 140 -47t56 -129q0 -56 -30 -97.5t-83 -52.5v-2q70 -6 109.5 -59.5t39.5 -125.5q0 -107 -61 -164t-161 -60q-33 0 -50 2v55q21 -4 47 -4q68 -1 115 39t47 121q0 51 -14.5 84t-44.5 50t-64.5 23t-85.5 6v53q173 0 173 130
q0 54 -38.5 89.5t-93.5 35.5q-72 0 -104.5 -36.5t-32.5 -109.5v-530h-63z" />
    <glyph glyph-name="agrave" unicode="&#xe0;" horiz-adv-x="519" 
d="M390 200v82h-2q-8 -15 -53 -23q-18 -3 -54 -8.5t-56.5 -8.5t-48.5 -11.5t-43 -19t-26.5 -29t-11.5 -42.5q0 -45 34.5 -73.5t80.5 -28.5q75 0 128 44.5t52 117.5zM117 358h-63q4 87 60 130t149 43q190 0 190 -166v-274q0 -38 37 -38q10 0 20 4v-53q-19 -4 -41 -4
q-45 0 -59.5 22t-14.5 68h-2q-36 -55 -77 -80t-111 -25q-76 0 -124.5 38.5t-48.5 112.5q0 39 14.5 67.5t35.5 44t57.5 26.5t65.5 15.5t76 9.5q6 0 9.5 0.5t9 1t9.5 1.5q45 5 63 18t18 52q0 106 -135 106q-62 0 -99.5 -30t-38.5 -90zM268 588l-132 141h78l105 -141h-51z" />
    <glyph glyph-name="aacute" unicode="&#xe1;" horiz-adv-x="519" 
d="M390 200v82h-2q-8 -15 -53 -23q-18 -3 -54 -8.5t-56.5 -8.5t-48.5 -11.5t-43 -19t-26.5 -29t-11.5 -42.5q0 -45 34.5 -73.5t80.5 -28.5q75 0 128 44.5t52 117.5zM117 358h-63q4 87 60 130t149 43q190 0 190 -166v-274q0 -38 37 -38q10 0 20 4v-53q-19 -4 -41 -4
q-45 0 -59.5 22t-14.5 68h-2q-36 -55 -77 -80t-111 -25q-76 0 -124.5 38.5t-48.5 112.5q0 39 14.5 67.5t35.5 44t57.5 26.5t65.5 15.5t76 9.5q6 0 9.5 0.5t9 1t9.5 1.5q45 5 63 18t18 52q0 106 -135 106q-62 0 -99.5 -30t-38.5 -90zM383 729l-132 -141h-51l105 141h78z" />
    <glyph glyph-name="acircumflex" unicode="&#xe2;" horiz-adv-x="519" 
d="M390 200v82h-2q-8 -15 -53 -23q-18 -3 -54 -8.5t-56.5 -8.5t-48.5 -11.5t-43 -19t-26.5 -29t-11.5 -42.5q0 -45 34.5 -73.5t80.5 -28.5q75 0 128 44.5t52 117.5zM117 358h-63q4 87 60 130t149 43q190 0 190 -166v-274q0 -38 37 -38q10 0 20 4v-53q-19 -4 -41 -4
q-45 0 -59.5 22t-14.5 68h-2q-36 -55 -77 -80t-111 -25q-76 0 -124.5 38.5t-48.5 112.5q0 39 14.5 67.5t35.5 44t57.5 26.5t65.5 15.5t76 9.5q6 0 9.5 0.5t9 1t9.5 1.5q45 5 63 18t18 52q0 106 -135 106q-62 0 -99.5 -30t-38.5 -90zM294 729l114 -141h-65l-86 102l-88 -102
h-58l114 141h69z" />
    <glyph glyph-name="atilde" unicode="&#xe3;" horiz-adv-x="519" 
d="M390 200v82h-2q-8 -15 -53 -23q-18 -3 -54 -8.5t-56.5 -8.5t-48.5 -11.5t-43 -19t-26.5 -29t-11.5 -42.5q0 -45 34.5 -73.5t80.5 -28.5q75 0 128 44.5t52 117.5zM117 358h-63q4 87 60 130t149 43q190 0 190 -166v-274q0 -38 37 -38q10 0 20 4v-53q-19 -4 -41 -4
q-45 0 -59.5 22t-14.5 68h-2q-36 -55 -77 -80t-111 -25q-76 0 -124.5 38.5t-48.5 112.5q0 39 14.5 67.5t35.5 44t57.5 26.5t65.5 15.5t76 9.5q6 0 9.5 0.5t9 1t9.5 1.5q45 5 63 18t18 52q0 106 -135 106q-62 0 -99.5 -30t-38.5 -90zM378 708h38q-6 -39 -28.5 -67t-58.5 -28
q-29 0 -75 22q-50 24 -60 24q-23 0 -38 -13.5t-15 -37.5h-39q5 39 28.5 67.5t60.5 28.5q31 0 75 -22t60 -22q37 0 52 48z" />
    <glyph glyph-name="adieresis" unicode="&#xe4;" horiz-adv-x="519" 
d="M390 200v82h-2q-8 -15 -53 -23q-18 -3 -54 -8.5t-56.5 -8.5t-48.5 -11.5t-43 -19t-26.5 -29t-11.5 -42.5q0 -45 34.5 -73.5t80.5 -28.5q75 0 128 44.5t52 117.5zM117 358h-63q4 87 60 130t149 43q190 0 190 -166v-274q0 -38 37 -38q10 0 20 4v-53q-19 -4 -41 -4
q-45 0 -59.5 22t-14.5 68h-2q-36 -55 -77 -80t-111 -25q-76 0 -124.5 38.5t-48.5 112.5q0 39 14.5 67.5t35.5 44t57.5 26.5t65.5 15.5t76 9.5q6 0 9.5 0.5t9 1t9.5 1.5q45 5 63 18t18 52q0 106 -135 106q-62 0 -99.5 -30t-38.5 -90zM382 605h-68v101h68v-101zM205 605h-68
v101h68v-101z" />
    <glyph glyph-name="aring" unicode="&#xe5;" horiz-adv-x="519" 
d="M390 200v82h-2q-8 -15 -53 -23q-18 -3 -54 -8.5t-56.5 -8.5t-48.5 -11.5t-43 -19t-26.5 -29t-11.5 -42.5q0 -45 34.5 -73.5t80.5 -28.5q75 0 128 44.5t52 117.5zM117 358h-63q4 87 60 130t149 43q190 0 190 -166v-274q0 -38 37 -38q10 0 20 4v-53q-19 -4 -41 -4
q-45 0 -59.5 22t-14.5 68h-2q-36 -55 -77 -80t-111 -25q-76 0 -124.5 38.5t-48.5 112.5q0 39 14.5 67.5t35.5 44t57.5 26.5t65.5 15.5t76 9.5q6 0 9.5 0.5t9 1t9.5 1.5q45 5 63 18t18 52q0 106 -135 106q-62 0 -99.5 -30t-38.5 -90zM153 677q0 44 31.5 75.5t75.5 31.5
t75.5 -31.5t31.5 -75.5t-31.5 -75.5t-75.5 -31.5t-75.5 31.5t-31.5 75.5zM192 677q0 -29 20 -48.5t48 -19.5t48 19.5t20 48.5t-20 48.5t-48 19.5t-48 -19.5t-20 -48.5z" />
    <glyph glyph-name="ae" unicode="&#xe6;" horiz-adv-x="870" 
d="M453 294h325q0 74 -45.5 129t-117.5 55q-76 0 -120 -54t-42 -130zM390 200v82h-2q-8 -15 -53 -23q-18 -3 -54 -8.5t-56.5 -8.5t-48.5 -11.5t-43 -19t-26.5 -29t-11.5 -42.5q0 -45 34.5 -73.5t80.5 -28.5q75 0 128 44.5t52 117.5zM841 241h-388q-6 -87 37.5 -145
t130.5 -58q124 0 153 129h63q-20 -87 -78 -134.5t-147 -47.5q-142 0 -189 130h-2q-11 -60 -76 -95t-140 -35q-76 0 -124.5 38.5t-48.5 112.5q0 39 14.5 67.5t35.5 44t57.5 26.5t65.5 15.5t76 9.5q6 0 9.5 0.5t9 1t9.5 1.5q45 5 63 18t18 52q0 106 -135 106q-62 0 -99.5 -30
t-38.5 -90h-63q4 87 60 130t149 43q157 0 172 -107h2q20 52 70.5 79.5t110.5 27.5q61 0 106 -23.5t69.5 -65.5t36 -91.5t11.5 -109.5z" />
    <glyph glyph-name="ccedilla" unicode="&#xe7;" horiz-adv-x="519" 
d="M428 185h63q-13 -92 -68.5 -145t-140.5 -55l-33 -43q43 8 79.5 -6t36.5 -56t-33.5 -64t-76.5 -22q-51 0 -94 21l14 32q34 -14 79 -14q23 0 38 11t15 32q0 17 -12.5 27.5t-30.5 10.5q-35 0 -51 -8l-16 15l51 66q-101 11 -157.5 87t-56.5 184q0 116 65 194.5t179 78.5
q85 0 142 -45.5t67 -131.5h-63q-27 124 -146 124q-86 0 -133.5 -65.5t-47.5 -154.5t47.5 -154.5t133.5 -65.5q59 0 101.5 41.5t48.5 105.5z" />
    <glyph glyph-name="egrave" unicode="&#xe8;" horiz-adv-x="519" 
d="M494 241h-397q1 -80 44 -141.5t126 -61.5q128 0 162 132h63q-43 -185 -225 -185q-116 0 -174.5 77t-58.5 196q0 72 23 131.5t77.5 100.5t132.5 41q60 0 106 -24.5t72 -66.5t38.5 -92.5t10.5 -106.5zM97 294h334q-2 76 -46.5 130t-117.5 54t-117.5 -53.5t-52.5 -130.5z
M268 588l-132 141h78l105 -141h-51z" />
    <glyph glyph-name="eacute" unicode="&#xe9;" horiz-adv-x="519" 
d="M494 241h-397q1 -80 44 -141.5t126 -61.5q128 0 162 132h63q-43 -185 -225 -185q-116 0 -174.5 77t-58.5 196q0 72 23 131.5t77.5 100.5t132.5 41q60 0 106 -24.5t72 -66.5t38.5 -92.5t10.5 -106.5zM97 294h334q-2 76 -46.5 130t-117.5 54t-117.5 -53.5t-52.5 -130.5z
M383 729l-132 -141h-51l105 141h78z" />
    <glyph glyph-name="ecircumflex" unicode="&#xea;" horiz-adv-x="519" 
d="M494 241h-397q1 -80 44 -141.5t126 -61.5q128 0 162 132h63q-43 -185 -225 -185q-116 0 -174.5 77t-58.5 196q0 72 23 131.5t77.5 100.5t132.5 41q60 0 106 -24.5t72 -66.5t38.5 -92.5t10.5 -106.5zM97 294h334q-2 76 -46.5 130t-117.5 54t-117.5 -53.5t-52.5 -130.5z
M294 729l114 -141h-65l-86 102l-88 -102h-58l114 141h69z" />
    <glyph glyph-name="edieresis" unicode="&#xeb;" horiz-adv-x="519" 
d="M494 241h-397q1 -80 44 -141.5t126 -61.5q128 0 162 132h63q-43 -185 -225 -185q-116 0 -174.5 77t-58.5 196q0 72 23 131.5t77.5 100.5t132.5 41q60 0 106 -24.5t72 -66.5t38.5 -92.5t10.5 -106.5zM97 294h334q-2 76 -46.5 130t-117.5 54t-117.5 -53.5t-52.5 -130.5z
M382 605h-68v101h68v-101zM205 605h-68v101h68v-101z" />
    <glyph glyph-name="igrave" unicode="&#xec;" horiz-adv-x="185" 
d="M124 0h-63v516h63v-516zM101 588l-132 141h78l105 -141h-51z" />
    <glyph glyph-name="iacute" unicode="&#xed;" horiz-adv-x="185" 
d="M124 0h-63v516h63v-516zM216 729l-132 -141h-51l105 141h78z" />
    <glyph glyph-name="icircumflex" unicode="&#xee;" horiz-adv-x="185" 
d="M124 0h-63v516h63v-516zM127 729l114 -141h-65l-86 102l-88 -102h-58l114 141h69z" />
    <glyph glyph-name="idieresis" unicode="&#xef;" horiz-adv-x="185" 
d="M124 0h-63v516h63v-516zM215 605h-68v101h68v-101zM38 605h-68v101h68v-101z" />
    <glyph glyph-name="eth" unicode="&#xf0;" 
d="M276 453q-91 0 -135 -57.5t-44 -147.5q0 -89 44.5 -149.5t132.5 -60.5q86 0 132.5 58t46.5 154q0 84 -44 143.5t-133 59.5zM135 596l100 56q-51 34 -93 55l36 35q61 -31 104 -64l114 64l33 -32l-109 -61q196 -161 196 -391q0 -119 -62.5 -196t-182.5 -77
q-116 0 -176.5 73.5t-60.5 190.5q0 109 63.5 183t173.5 74q96 0 133 -40h2q-46 86 -133 157l-105 -59z" />
    <glyph glyph-name="ntilde" unicode="&#xf1;" horiz-adv-x="537" 
d="M59 0v516h63v-89h2q17 46 63.5 75t101.5 29q104 0 146.5 -50.5t42.5 -148.5v-332h-63v322q0 156 -131 156q-73 0 -116.5 -49.5t-45.5 -127.5v-301h-63zM387 708h38q-6 -39 -28.5 -67t-58.5 -28q-29 0 -75 22q-50 24 -60 24q-23 0 -38 -13.5t-15 -37.5h-39q5 39 28.5 67.5
t60.5 28.5q31 0 75 -22t60 -22q37 0 52 48z" />
    <glyph glyph-name="ograve" unicode="&#xf2;" 
d="M278 531q114 0 179 -78.5t65 -194.5t-65 -194.5t-179 -78.5t-179 78.5t-65 194.5t65 194.5t179 78.5zM278 478q-86 0 -133.5 -65.5t-47.5 -154.5t47.5 -154.5t133.5 -65.5t133.5 65.5t47.5 154.5t-47.5 154.5t-133.5 65.5zM287 588l-132 141h78l105 -141h-51z" />
    <glyph glyph-name="oacute" unicode="&#xf3;" 
d="M278 531q114 0 179 -78.5t65 -194.5t-65 -194.5t-179 -78.5t-179 78.5t-65 194.5t65 194.5t179 78.5zM278 478q-86 0 -133.5 -65.5t-47.5 -154.5t47.5 -154.5t133.5 -65.5t133.5 65.5t47.5 154.5t-47.5 154.5t-133.5 65.5zM402 729l-132 -141h-51l105 141h78z" />
    <glyph glyph-name="ocircumflex" unicode="&#xf4;" 
d="M278 531q114 0 179 -78.5t65 -194.5t-65 -194.5t-179 -78.5t-179 78.5t-65 194.5t65 194.5t179 78.5zM278 478q-86 0 -133.5 -65.5t-47.5 -154.5t47.5 -154.5t133.5 -65.5t133.5 65.5t47.5 154.5t-47.5 154.5t-133.5 65.5zM313 729l114 -141h-65l-86 102l-88 -102h-58
l114 141h69z" />
    <glyph glyph-name="otilde" unicode="&#xf5;" 
d="M278 531q114 0 179 -78.5t65 -194.5t-65 -194.5t-179 -78.5t-179 78.5t-65 194.5t65 194.5t179 78.5zM278 478q-86 0 -133.5 -65.5t-47.5 -154.5t47.5 -154.5t133.5 -65.5t133.5 65.5t47.5 154.5t-47.5 154.5t-133.5 65.5zM397 708h38q-6 -39 -28.5 -67t-58.5 -28
q-29 0 -75 22q-50 24 -60 24q-23 0 -38 -13.5t-15 -37.5h-39q5 39 28.5 67.5t60.5 28.5q31 0 75 -22t60 -22q37 0 52 48z" />
    <glyph glyph-name="odieresis" unicode="&#xf6;" 
d="M278 531q114 0 179 -78.5t65 -194.5t-65 -194.5t-179 -78.5t-179 78.5t-65 194.5t65 194.5t179 78.5zM278 478q-86 0 -133.5 -65.5t-47.5 -154.5t47.5 -154.5t133.5 -65.5t133.5 65.5t47.5 154.5t-47.5 154.5t-133.5 65.5zM401 605h-68v101h68v-101zM224 605h-68v101h68
v-101z" />
    <glyph glyph-name="divide" unicode="&#xf7;" horiz-adv-x="600" 
d="M552 225h-503v53h503v-53zM244 453q0 23 16.5 39.5t39.5 16.5q22 0 39 -16.5t17 -39.5q0 -21 -17 -38.5t-38 -17.5q-23 0 -40 16.5t-17 39.5zM244 50q0 23 16.5 39.5t39.5 16.5q22 0 39 -17t17 -39q0 -21 -17 -38.5t-38 -17.5q-23 0 -40 16.5t-17 39.5z" />
    <glyph glyph-name="oslash" unicode="&#xf8;" 
d="M133 123l273 295q-48 60 -128 60q-86 0 -133.5 -65.5t-47.5 -154.5q0 -77 36 -135zM424 392l-273 -295q47 -59 127 -59q86 0 133.5 65.5t47.5 154.5q0 77 -35 134zM500 519l22 -20l-54 -59q54 -75 54 -182q0 -116 -65 -194.5t-179 -78.5q-105 0 -168 68l-59 -64l-22 20
l61 67q-56 73 -56 182q0 116 65 194.5t179 78.5q105 0 170 -68z" />
    <glyph glyph-name="ugrave" unicode="&#xf9;" horiz-adv-x="537" 
d="M478 516v-516h-58v93h-2q-24 -51 -72 -79.5t-106 -28.5q-181 0 -181 196v335h63v-336q2 -72 33.5 -107t104.5 -35q76 0 115.5 60.5t39.5 146.5v271h63zM277 588l-132 141h78l105 -141h-51z" />
    <glyph glyph-name="uacute" unicode="&#xfa;" horiz-adv-x="537" 
d="M478 516v-516h-58v93h-2q-24 -51 -72 -79.5t-106 -28.5q-181 0 -181 196v335h63v-336q2 -72 33.5 -107t104.5 -35q76 0 115.5 60.5t39.5 146.5v271h63zM392 729l-132 -141h-51l105 141h78z" />
    <glyph glyph-name="ucircumflex" unicode="&#xfb;" horiz-adv-x="537" 
d="M478 516v-516h-58v93h-2q-24 -51 -72 -79.5t-106 -28.5q-181 0 -181 196v335h63v-336q2 -72 33.5 -107t104.5 -35q76 0 115.5 60.5t39.5 146.5v271h63zM303 729l114 -141h-65l-86 102l-88 -102h-58l114 141h69z" />
    <glyph glyph-name="udieresis" unicode="&#xfc;" horiz-adv-x="537" 
d="M478 516v-516h-58v93h-2q-24 -51 -72 -79.5t-106 -28.5q-181 0 -181 196v335h63v-336q2 -72 33.5 -107t104.5 -35q76 0 115.5 60.5t39.5 146.5v271h63zM391 605h-68v101h68v-101zM214 605h-68v101h68v-101z" />
    <glyph glyph-name="yacute" unicode="&#xfd;" horiz-adv-x="463" 
d="M208 2l-206 514h67l170 -440l159 440h63l-224 -595q-28 -68 -53.5 -90t-82.5 -22q-39 2 -48 5v53q25 -5 43 -5q20 0 34 5t24.5 18.5t15.5 23.5t16 34zM355 729l-132 -141h-51l105 141h78z" />
    <glyph glyph-name="thorn" unicode="&#xfe;" horiz-adv-x="574" 
d="M473 258q0 57 -16.5 105t-56 81.5t-96.5 33.5q-93 0 -137 -64.5t-44 -155.5t44 -155.5t137 -64.5q57 0 96.5 33.5t56 81.5t16.5 105zM60 -191v905h63v-296h2q20 54 69.5 83.5t109.5 29.5q112 0 172 -78t60 -195t-60 -195t-172 -78q-60 0 -109.5 29.5t-69.5 83.5h-2v-289
h-63z" />
    <glyph glyph-name="ydieresis" unicode="&#xff;" horiz-adv-x="463" 
d="M208 2l-206 514h67l170 -440l159 440h63l-224 -595q-28 -68 -53.5 -90t-82.5 -22q-39 2 -48 5v53q25 -5 43 -5q20 0 34 5t24.5 18.5t15.5 23.5t16 34zM354 605h-68v101h68v-101zM177 605h-68v101h68v-101z" />
    <glyph glyph-name="dotlessi" unicode="&#x131;" horiz-adv-x="185" 
d="M124 0h-63v516h63v-516z" />
    <glyph glyph-name="Lslash" unicode="&#x141;" horiz-adv-x="537" 
d="M72 306v408h68v-361l243 168v-56l-243 -167v-240h400v-58h-468v251l-82 -57v56z" />
    <glyph glyph-name="lslash" unicode="&#x142;" horiz-adv-x="185" 
d="M61 395v319h63v-267l67 55v-55l-67 -55v-392h-63v340l-67 -55v55z" />
    <glyph glyph-name="OE" unicode="&#x152;" horiz-adv-x="1074" 
d="M569 177v332q0 46 -5 66q-16 43 -74 69.5t-115 26.5q-126 0 -198 -90.5t-72 -223.5t72 -223.5t198 -90.5q113 0 176 79q16 20 18 55zM637 656v-258h368v-58h-368v-282h409v-58h-477v70q-34 -41 -87 -63t-107 -22q-154 0 -246 108t-92 264t92 264t246 108q129 0 194 -74
v59h474v-58h-406z" />
    <glyph glyph-name="oe" unicode="&#x153;" horiz-adv-x="889" 
d="M265 478q-62 0 -101 -37t-52 -86t-13 -109q0 -86 41 -147t124 -61q152 0 152 224q0 216 -151 216zM799 166h63q-21 -86 -80.5 -133.5t-147.5 -47.5q-66 0 -117.5 34.5t-66.5 96.5h-2q-18 -64 -67 -97.5t-118 -33.5q-114 0 -170.5 77.5t-56.5 195.5q0 115 59 194t171 79
q68 0 116 -32t68 -95h2q21 57 72 92t118 35q221 0 221 -290h-384q0 -83 41 -143t120 -60q122 0 159 128zM479 294h321q0 77 -42.5 130.5t-117.5 53.5q-76 0 -118.5 -53t-42.5 -131z" />
    <glyph glyph-name="Scaron" unicode="&#x160;" horiz-adv-x="630" 
d="M36 235h68q-4 -192 233 -192q41 0 82.5 13.5t74 48.5t32.5 83q0 93 -147 129l-159 39q-74 19 -117.5 57.5t-43.5 114.5q0 30 11 61.5t36 64.5t76.5 54t122.5 21q112 0 188.5 -58.5t75.5 -163.5h-68q-3 78 -59 121t-136 43q-78 0 -128.5 -34t-50.5 -108q0 -83 108 -109
l174 -43q42 -11 72.5 -24.5t57.5 -35t41 -54t14 -74.5q0 -20 -3.5 -40.5t-20 -52t-43.5 -54.5t-80.5 -40t-125.5 -17q-134 0 -212.5 62.5t-72.5 187.5zM281 771l-114 141h65l86 -102l88 102h58l-114 -141h-69z" />
    <glyph glyph-name="scaron" unicode="&#x161;" horiz-adv-x="481" 
d="M432 365h-63q-2 56 -40 84.5t-95 28.5q-49 0 -85.5 -21.5t-36.5 -67.5q0 -60 107 -87l84 -19q62 -9 104.5 -45t42.5 -98q0 -77 -62.5 -116t-144.5 -39q-93 0 -149 45t-63 137h63q4 -62 45.5 -95.5t106.5 -33.5q53 0 97 24.5t44 73.5q0 41 -30 61t-83 33l-81 18
q-72 19 -108 48t-36 90q0 73 58 109t136 36q81 0 133.5 -42.5t55.5 -123.5zM206 588l-114 141h65l86 -102l88 102h58l-114 -141h-69z" />
    <glyph glyph-name="Ydieresis" unicode="&#x178;" horiz-adv-x="611" 
d="M271 0v294l-281 420h81l235 -362l234 362h81l-282 -420v-294h-68zM428 788h-68v101h68v-101zM251 788h-68v101h68v-101z" />
    <glyph glyph-name="Zcaron" unicode="&#x17d;" horiz-adv-x="574" 
d="M37 656v58h514v-60l-470 -596h480v-58h-556v60l470 596h-438zM253 771l-114 141h65l86 -102l88 102h58l-114 -141h-69z" />
    <glyph glyph-name="zcaron" unicode="&#x17e;" horiz-adv-x="463" 
d="M432 471l-341 -418h355v-53h-431v51l337 412h-314v53h394v-45zM197 588l-114 141h65l86 -102l88 102h58l-114 -141h-69z" />
    <glyph glyph-name="florin" unicode="&#x192;" 
d="M7 -168l9 54q26 -6 52 -6q69 2 92 112l75 394h-100l9 53h101l13 69q22 101 40 134q38 72 130 72q27 0 62 -5l-12 -52q-30 4 -46 4t-29 -4.5t-22 -10.5t-17.5 -17.5t-13 -20t-9.5 -24.5t-7 -25t-6 -27.5t-6 -25.5l-14 -67h113l-9 -53h-113l-61 -323q-21 -107 -32 -137
q-33 -87 -119 -97q-17 -2 -35 -2q-20 0 -45 5z" />
    <glyph glyph-name="circumflex" unicode="&#x2c6;" horiz-adv-x="185" 
d="M127 729l114 -141h-65l-86 102l-88 -102h-58l114 141h69z" />
    <glyph glyph-name="caron" unicode="&#x2c7;" horiz-adv-x="185" 
d="M58 588l-114 141h65l86 -102l88 102h58l-114 -141h-69z" />
    <glyph glyph-name="uni02C9" unicode="&#x2c9;" horiz-adv-x="185" 
d="M257 634h-329v45h329v-45z" />
    <glyph glyph-name="breve" unicode="&#x2d8;" horiz-adv-x="185" 
d="M-51 722h39q2 -38 32.5 -60t70.5 -22t70.5 22t35.5 60h39q-7 -58 -46.5 -92.5t-98.5 -34.5q-61 0 -99.5 33.5t-42.5 93.5z" />
    <glyph glyph-name="dotaccent" unicode="&#x2d9;" horiz-adv-x="185" 
d="M127 605h-68v101h68v-101z" />
    <glyph glyph-name="ring" unicode="&#x2da;" horiz-adv-x="185" 
d="M-14 677q0 44 31.5 75.5t75.5 31.5t75.5 -31.5t31.5 -75.5t-31.5 -75.5t-75.5 -31.5t-75.5 31.5t-31.5 75.5zM25 677q0 -29 19.5 -48.5t48.5 -19.5t48.5 19.5t19.5 48.5t-19.5 48.5t-48.5 19.5t-48.5 -19.5t-19.5 -48.5z" />
    <glyph glyph-name="ogonek" unicode="&#x2db;" horiz-adv-x="185" 
d="M151 2h38q-51 -41 -70 -70t-19 -57q0 -23 12.5 -35t31.5 -12q32 0 55 41l29 -13q-40 -67 -95 -67q-96 0 -96 82q0 13 6 28.5t34 45t74 57.5z" />
    <glyph glyph-name="tilde" unicode="&#x2dc;" horiz-adv-x="185" 
d="M211 708h38q-6 -39 -28.5 -67t-58.5 -28q-29 0 -75 22q-50 24 -60 24q-23 0 -38 -13.5t-15 -37.5h-39q5 39 28.5 67.5t60.5 28.5q31 0 75 -22t60 -22q37 0 52 48z" />
    <glyph glyph-name="hungarumlaut" unicode="&#x2dd;" horiz-adv-x="185" 
d="M18 588h-51l101 141h76zM174 588h-51l101 141h76z" />
    <glyph glyph-name="uni03A9" unicode="&#x3a9;" horiz-adv-x="726" 
d="M208 47v3q-62 54 -101.5 136t-39.5 183q0 150 85.5 243.5t213.5 93.5t210 -97.5t82 -235.5q0 -105 -41.5 -190t-100.5 -133v-3h156v-47h-233v35q68 44 115 130.5t47 198.5q0 70 -25.5 135.5t-81 112t-129.5 46.5q-108 0 -174.5 -85.5t-66.5 -210.5q0 -107 48 -196
t113 -131v-35h-232v47h155z" />
    <glyph glyph-name="uni03BC" unicode="&#x3bc;" horiz-adv-x="537" 
d="M478 516v-516h-58v93h-2q-24 -51 -72 -79.5t-106 -28.5q-70 0 -117 35v-211h-64v707h63v-336q2 -72 33.5 -107t104.5 -35q76 0 115.5 60.5t39.5 146.5v271h63z" />
    <glyph glyph-name="pi" unicode="&#x3c0;" horiz-adv-x="560" 
d="M532 466h-84v-319q0 -100 15 -147h-55q-16 27 -16 139v327h-197q-6 -114 -28 -258t-49 -208h-56q28 74 49.5 213t26.5 253q-84 0 -116 -13l-11 37q42 25 136 25h392z" />
    <glyph glyph-name="endash" unicode="&#x2013;" horiz-adv-x="500" 
d="M500 246h-500v58h500v-58z" />
    <glyph glyph-name="emdash" unicode="&#x2014;" horiz-adv-x="1000" 
d="M870 246h-740v58h740v-58z" />
    <glyph glyph-name="quoteleft" unicode="&#x2018;" horiz-adv-x="278" 
d="M179 471h-84v107q1 47 23.5 85.5t65.5 50.5v-43q-24 -8 -36.5 -37t-10.5 -57h42v-106z" />
    <glyph glyph-name="quoteright" unicode="&#x2019;" horiz-adv-x="278" 
d="M99 714h84v-107q-1 -47 -23.5 -85.5t-65.5 -50.5v43q24 8 36.5 37t10.5 57h-42v106z" />
    <glyph glyph-name="quotesinglbase" unicode="&#x201a;" horiz-adv-x="278" 
d="M99 106h84v-107q-1 -47 -23.5 -85.5t-65.5 -50.5v43q24 8 36.5 37t10.5 57h-42v106z" />
    <glyph glyph-name="quotedblleft" unicode="&#x201c;" horiz-adv-x="370" 
d="M302 471h-84v107q1 47 23.5 85.5t65.5 50.5v-43q-24 -8 -36.5 -37t-10.5 -57h42v-106zM148 471h-84v107q1 47 23.5 85.5t65.5 50.5v-43q-24 -8 -36.5 -37t-10.5 -57h42v-106z" />
    <glyph glyph-name="quotedblright" unicode="&#x201d;" horiz-adv-x="370" 
d="M222 714h84v-107q-1 -47 -23.5 -85.5t-65.5 -50.5v43q24 8 36.5 37t10.5 57h-42v106zM68 714h84v-107q-1 -47 -23.5 -85.5t-65.5 -50.5v43q24 8 36.5 37t10.5 57h-42v106z" />
    <glyph glyph-name="quotedblbase" unicode="&#x201e;" horiz-adv-x="370" 
d="M222 106h84v-107q-1 -47 -23.5 -85.5t-65.5 -50.5v43q24 8 36.5 37t10.5 57h-42v106zM68 106h84v-107q-1 -47 -23.5 -85.5t-65.5 -50.5v43q24 8 36.5 37t10.5 57h-42v106z" />
    <glyph glyph-name="dagger" unicode="&#x2020;" 
d="M246 440h-198v53h198v221h63v-221h199v-53h-199v-591h-63v591z" />
    <glyph glyph-name="daggerdbl" unicode="&#x2021;" 
d="M246 47h-198v53h198v363h-198v53h198v198h63v-198h199v-53h-199v-363h199v-53h-199v-198h-63v198z" />
    <glyph glyph-name="bullet" unicode="&#x2022;" horiz-adv-x="500" 
d="M72 357q0 74 52 126t126 52t126.5 -52t52.5 -126t-52.5 -126.5t-126.5 -52.5t-126 52.5t-52 126.5z" />
    <glyph glyph-name="ellipsis" unicode="&#x2026;" horiz-adv-x="1000" 
d="M209 0h-84v106h84v-106zM542 0h-84v106h84v-106zM875 0h-84v106h84v-106z" />
    <glyph glyph-name="perthousand" unicode="&#x2030;" horiz-adv-x="1111" 
d="M547 323q76 0 112.5 -45.5t36.5 -123.5t-36.5 -123.5t-112.5 -45.5t-112.5 45.5t-36.5 123.5t36.5 123.5t112.5 45.5zM547 278q-96 0 -96 -124t96 -124t96 124t-96 124zM901 323q76 0 112.5 -45.5t36.5 -123.5t-36.5 -123.5t-112.5 -45.5t-112.5 45.5t-36.5 123.5
t36.5 123.5t112.5 45.5zM901 278q-96 0 -96 -124t96 -124t96 124t-96 124zM214 706q76 0 112.5 -45.5t36.5 -123.5t-36.5 -123.5t-112.5 -45.5t-112.5 45.5t-36.5 123.5t36.5 123.5t112.5 45.5zM214 661q-96 0 -96 -124t96 -124t96 124t-96 124zM129 -34l453 759h47
l-452 -759h-48z" />
    <glyph glyph-name="guilsinglleft" unicode="&#x2039;" horiz-adv-x="259" 
d="M186 119l-133 125v62l133 125v-67l-94 -89l94 -89v-67z" />
    <glyph glyph-name="guilsinglright" unicode="&#x203a;" horiz-adv-x="259" 
d="M73 119v67l94 89l-94 89v67l133 -125v-62z" />
    <glyph glyph-name="fraction" unicode="&#x2044;" horiz-adv-x="167" 
d="M-166 -34l453 759h47l-452 -759h-48z" />
    <glyph glyph-name="Euro" unicode="&#x20ac;" 
d="M557 635l-27 -59q-66 79 -160 79q-92 0 -150 -67q-51 -59 -69 -154h333l-18 -45h-321q-3 -25 -3 -43q0 -11 1 -16h304l-19 -45h-282q14 -105 63 -169q60 -75 158 -75q53 0 96 23q35 20 78 63v-77q-77 -65 -176 -65q-125 0 -202 89q-67 79 -82 211h-66l19 45h44
q-1 5 -1 20q0 7 2 39h-64l18 45h51q23 124 92 196q76 82 195 82q124 0 186 -77z" />
    <glyph glyph-name="afii61289" unicode="&#x2113;" horiz-adv-x="475" 
d="M420 134l30 -23q-64 -121 -179 -121q-80 0 -119.5 54t-41.5 137v13q-16 -12 -59 -49l-20 36q56 46 79 68v280q0 125 42.5 179.5t102.5 54.5q58 0 88 -43.5t30 -112.5q0 -169 -210 -372v-30q1 -86 34.5 -128t83.5 -42q45 0 81.5 29.5t57.5 69.5zM163 536v-243
q80 86 124 161t44 150q0 115 -78 115q-35 0 -62.5 -44.5t-27.5 -138.5z" />
    <glyph glyph-name="trademark" unicode="&#x2122;" horiz-adv-x="990" 
d="M269 302h-53v367h-134v45h321v-45h-134v-367zM529 302h-53v412h85l133 -334l129 334h85v-412h-53v364h-2l-146 -364h-30l-146 364h-2v-364z" />
    <glyph glyph-name="Omega" unicode="&#x2126;" horiz-adv-x="726" 
d="M208 47v3q-62 54 -101.5 136t-39.5 183q0 150 85.5 243.5t213.5 93.5t210 -97.5t82 -235.5q0 -105 -41.5 -190t-100.5 -133v-3h156v-47h-233v35q68 44 115 130.5t47 198.5q0 70 -25.5 135.5t-81 112t-129.5 46.5q-108 0 -174.5 -85.5t-66.5 -210.5q0 -107 48 -196
t113 -131v-35h-232v47h155z" />
    <glyph glyph-name="estimated" unicode="&#x212e;" horiz-adv-x="869" 
d="M835 335h-649q-5 0 -5 -4v-196q0 -12 8 -23q103 -106 246 -106q75 0 142 32t116 87h57q-54 -64 -137.5 -101.5t-178.5 -37.5q-166 0 -283 105t-117 254t117 255t283 106t283.5 -106t117.5 -255v-10zM687 361v197q0 14 -9 24q-104 102 -243 102q-142 0 -245 -105
q-9 -11 -9 -25v-193q0 -6 5 -6h497q4 0 4 6z" />
    <glyph glyph-name="partialdiff" unicode="&#x2202;" horiz-adv-x="536" 
d="M101 679l-22 41q69 54 161 54q101 0 173 -96.5t72 -278.5q0 -179 -66 -294.5t-188 -115.5q-90 0 -138.5 67t-48.5 161q0 112 62.5 181.5t148.5 69.5q64 0 109 -33.5t64 -68.5h1q1 13 1 48q0 140 -57.5 226.5t-137.5 86.5q-76 0 -134 -48zM235 36h1q74 0 123.5 77.5
t60.5 190.5q-14 43 -57 80.5t-100 37.5q-66 0 -114 -59.5t-48 -143.5q0 -81 36.5 -132t97.5 -51z" />
    <glyph glyph-name="Delta" unicode="&#x2206;" horiz-adv-x="645" 
d="M33 0v43l259 671h64l257 -671v-43h-580zM90 47h461l-158 412q-8 24 -35 93t-35 94h-4q-6 -22 -32 -90t-31 -81z" />
    <glyph glyph-name="product" unicode="&#x220f;" horiz-adv-x="692" 
d="M664 643h-112v-739h-55v739h-303v-739h-55v739h-113v51h638v-51z" />
    <glyph glyph-name="summation" unicode="&#x2211;" horiz-adv-x="552" 
d="M528 -96h-505v39l278 355l-265 357v39h477v-49h-397v-4l251 -336l-270 -344v-3h431v-54z" />
    <glyph glyph-name="minus" unicode="&#x2212;" horiz-adv-x="600" 
d="M552 278v-53h-503v53h503z" />
    <glyph glyph-name="uni2215" unicode="&#x2215;" horiz-adv-x="167" 
d="M-166 -34l453 759h47l-452 -759h-48z" />
    <glyph glyph-name="uni2219" unicode="&#x2219;" horiz-adv-x="278" 
d="M139 375q24 0 41.5 -18t17.5 -42q0 -23 -18 -40.5t-41 -17.5q-24 0 -41.5 18t-17.5 42q0 22 18 40t41 18z" />
    <glyph glyph-name="radical" unicode="&#x221a;" horiz-adv-x="563" 
d="M561 823l-221 -975h-53l-164 471l-75 -28l-13 36l124 48l136 -390q11 -42 17 -67h1q2 9 6 32.5t6 32.5l192 840h44z" />
    <glyph glyph-name="infinity" unicode="&#x221e;" horiz-adv-x="775" 
d="M723 289v-1q0 -67 -44.5 -110t-105.5 -43q-45 0 -85 28.5t-99 92.5q-27 -30 -42.5 -45.5t-41 -36.5t-52 -30t-55.5 -9q-60 0 -103 43.5t-43 106.5q0 66 43.5 110t109.5 44q51 0 94 -32.5t93 -90.5q26 29 34 37.5t31.5 31t38.5 30.5t38 16t47 8q65 0 103.5 -41.5
t38.5 -108.5zM204 174h1q19 0 37 6t38 22t29 23.5t32 32t25 26.5q-25 30 -36.5 42.5t-35.5 34.5t-47.5 31t-49.5 9q-47 0 -75 -34.5t-28 -82.5q1 -47 31.5 -78.5t78.5 -31.5zM576 401h-1q-24 0 -50.5 -14t-41.5 -27.5t-40.5 -40.5t-29.5 -31q61 -64 93.5 -89t70.5 -25
q47 0 75.5 33.5t28.5 78.5q0 54 -29.5 84.5t-75.5 30.5z" />
    <glyph glyph-name="integral" unicode="&#x222b;" horiz-adv-x="343" 
d="M329 831l-12 -40q-15 11 -37 11q-33 0 -51 -23q-37 -42 -37 -182q0 -76 7 -252.5t7 -255.5q0 -138 -46 -201q-29 -44 -88 -44q-34 0 -61 17l12 41q24 -12 46 -12q30 0 47 23q37 46 37 178q0 79 -6.5 257.5t-6.5 254.5q0 154 51 206q35 36 85 36q30 0 53 -14z" />
    <glyph glyph-name="approxequal" unicode="&#x2248;" horiz-adv-x="568" 
d="M493 422l25 -22q-46 -92 -126 -92q-28 0 -51.5 9.5t-67.5 33.5q-62 34 -96 34q-33 0 -55.5 -19.5t-46.5 -55.5l-27 21q49 92 136 92q17 0 35 -5t28.5 -10t28 -15t22.5 -12q3 -2 14 -8t14.5 -7.5t12 -6t13.5 -6t13 -3.5t15 -3t15 -1q31 0 53 18t45 58zM493 257l25 -22
q-46 -91 -126 -91q-20 0 -40 6t-33 12.5t-46 24.5q-64 34 -96 34q-55 0 -102 -76l-27 21q49 93 135 93q17 0 35.5 -5t28.5 -9.5t28.5 -15t22.5 -12.5t16 -8.5t16.5 -9t14.5 -6.5t16.5 -6t16 -3.5t18.5 -1.5q30 0 52 18t45 57z" />
    <glyph glyph-name="notequal" unicode="&#x2260;" horiz-adv-x="568" 
d="M398 499l-47 -102h164v-39h-181l-70 -151h251v-39h-268l-56 -120l-32 16l49 104h-156v39h173l70 151h-243v39h260l54 118z" />
    <glyph glyph-name="lessequal" unicode="&#x2264;" horiz-adv-x="568" 
d="M513 94l-455 226v41l455 225v-48l-410 -196v-2l410 -198v-48zM515 11h-463v41h463v-41z" />
    <glyph glyph-name="greaterequal" unicode="&#x2265;" horiz-adv-x="568" 
d="M58 586l455 -225v-41l-454 -226v48l409 197v2l-410 197v48zM515 11h-462v41h462v-41z" />
    <glyph glyph-name="lozenge" unicode="&#x25ca;" horiz-adv-x="565" 
d="M508 347l-204 -391h-46l-202 391l204 391h46zM455 345l-154 295q-9 20 -19 49h-2q-5 -17 -19 -49l-152 -292l154 -296q12 -28 18 -48h3q6 24 18 48z" />
    <hkern u1="T" u2="&#x161;" k="28" />
    <hkern u1="T" u2="&#xfc;" k="46" />
    <hkern u1="T" u2="&#xf6;" k="56" />
    <hkern u1="T" u2="&#xf2;" k="56" />
    <hkern u1="T" u2="&#xeb;" k="56" />
    <hkern u1="T" u2="&#xea;" k="83" />
    <hkern u1="T" u2="&#xe8;" k="83" />
    <hkern u1="T" u2="&#xe5;" k="56" />
    <hkern u1="T" u2="&#xe4;" k="28" />
    <hkern u1="T" u2="&#xe3;" k="56" />
    <hkern u1="T" u2="&#xe2;" k="56" />
    <hkern u1="T" u2="&#xe0;" k="56" />
    <hkern u1="V" u2="&#xf6;" k="28" />
    <hkern u1="V" u2="&#xf4;" k="41" />
    <hkern u1="V" u2="&#xeb;" k="28" />
    <hkern u1="V" u2="&#xea;" k="28" />
    <hkern u1="V" u2="&#xe8;" k="28" />
    <hkern u1="V" u2="&#xe5;" k="28" />
    <hkern u1="V" u2="&#xe4;" k="28" />
    <hkern u1="V" u2="&#xe3;" k="28" />
    <hkern u1="V" u2="&#xe2;" k="28" />
    <hkern u1="V" u2="&#xe0;" k="28" />
    <hkern u1="W" u2="&#xfc;" k="14" />
    <hkern u1="W" u2="&#xf6;" k="14" />
    <hkern u1="W" u2="&#xea;" k="14" />
    <hkern u1="W" u2="&#xe4;" k="28" />
    <hkern u1="Y" u2="&#xfc;" k="56" />
    <hkern u1="Y" u2="&#xf6;" k="69" />
    <hkern u1="&#x2018;" u2="&#x2018;" k="119" />
    <hkern u1="&#x2019;" u2="&#x2019;" k="119" />
    <hkern g1="A,Agrave,Aacute,Acircumflex,Atilde,Adieresis,Aring"
	g2="T"
	k="68" />
    <hkern g1="A,Agrave,Aacute,Acircumflex,Atilde,Adieresis,Aring"
	g2="v"
	k="18" />
    <hkern g1="A,Agrave,Aacute,Acircumflex,Atilde,Adieresis,Aring"
	g2="V"
	k="50" />
    <hkern g1="A,Agrave,Aacute,Acircumflex,Atilde,Adieresis,Aring"
	g2="w"
	k="18" />
    <hkern g1="A,Agrave,Aacute,Acircumflex,Atilde,Adieresis,Aring"
	g2="W"
	k="5" />
    <hkern g1="A,Agrave,Aacute,Acircumflex,Atilde,Adieresis,Aring"
	g2="y,yacute,ydieresis"
	k="18" />
    <hkern g1="A,Agrave,Aacute,Acircumflex,Atilde,Adieresis,Aring"
	g2="Y,Yacute,Ydieresis"
	k="74" />
    <hkern g1="A,Agrave,Aacute,Acircumflex,Atilde,Adieresis,Aring"
	g2="quoteright"
	k="86" />
    <hkern g1="f,fi,fl"
	g2="quoteright"
	k="-18" />
    <hkern g1="f,fi,fl"
	g2="f,germandbls,fi,fl"
	k="18" />
    <hkern g1="F"
	g2="A,Agrave,Aacute,Acircumflex,Atilde,Adieresis,Aring,AE"
	k="55" />
    <hkern g1="F"
	g2="comma"
	k="129" />
    <hkern g1="F"
	g2="period"
	k="129" />
    <hkern g1="L,Lslash"
	g2="T"
	k="92" />
    <hkern g1="L,Lslash"
	g2="V"
	k="92" />
    <hkern g1="L,Lslash"
	g2="W"
	k="55" />
    <hkern g1="L,Lslash"
	g2="y,yacute,ydieresis"
	k="37" />
    <hkern g1="L,Lslash"
	g2="Y,Yacute,Ydieresis"
	k="111" />
    <hkern g1="L,Lslash"
	g2="quoteright"
	k="98" />
    <hkern g1="P"
	g2="A,Agrave,Aacute,Acircumflex,Atilde,Adieresis,Aring,AE"
	k="74" />
    <hkern g1="P"
	g2="comma"
	k="153" />
    <hkern g1="P"
	g2="period"
	k="153" />
    <hkern g1="r"
	g2="comma"
	k="92" />
    <hkern g1="r"
	g2="period"
	k="92" />
    <hkern g1="r"
	g2="c,ccedilla"
	k="18" />
    <hkern g1="r"
	g2="d,dotlessi"
	k="18" />
    <hkern g1="r"
	g2="e,egrave,eacute,ecircumflex,edieresis"
	k="18" />
    <hkern g1="r"
	g2="n,ntilde"
	k="-18" />
    <hkern g1="r"
	g2="o,ograve,oacute,ocircumflex,otilde,odieresis,oslash,oe"
	k="18" />
    <hkern g1="r"
	g2="q"
	k="18" />
    <hkern g1="r"
	g2="hyphen"
	k="55" />
    <hkern g1="R"
	g2="T"
	k="-6" />
    <hkern g1="R"
	g2="V"
	k="-6" />
    <hkern g1="R"
	g2="W"
	k="-6" />
    <hkern g1="R"
	g2="y,yacute,ydieresis"
	k="-24" />
    <hkern g1="R"
	g2="Y,Yacute,Ydieresis"
	k="13" />
    <hkern g1="T"
	g2="w"
	k="111" />
    <hkern g1="T"
	g2="y,yacute,ydieresis"
	k="111" />
    <hkern g1="T"
	g2="A,Agrave,Aacute,Acircumflex,Atilde,Adieresis,Aring,AE"
	k="68" />
    <hkern g1="T"
	g2="comma"
	k="111" />
    <hkern g1="T"
	g2="period"
	k="111" />
    <hkern g1="T"
	g2="c,ccedilla"
	k="111" />
    <hkern g1="T"
	g2="e,egrave,eacute,ecircumflex,edieresis"
	k="111" />
    <hkern g1="T"
	g2="o,ograve,oacute,ocircumflex,otilde,odieresis,oslash,oe"
	k="111" />
    <hkern g1="T"
	g2="hyphen"
	k="129" />
    <hkern g1="T"
	g2="a,agrave,aacute,acircumflex,atilde,adieresis,aring,ae"
	k="111" />
    <hkern g1="T"
	g2="i,igrave,iacute,icircumflex,idieresis"
	k="-24" />
    <hkern g1="T"
	g2="r"
	k="92" />
    <hkern g1="T"
	g2="s,scaron"
	k="111" />
    <hkern g1="T"
	g2="u,ugrave,uacute,ucircumflex,udieresis"
	k="92" />
    <hkern g1="T"
	g2="colon"
	k="111" />
    <hkern g1="T"
	g2="semicolon"
	k="111" />
    <hkern g1="v"
	g2="comma"
	k="74" />
    <hkern g1="v"
	g2="period"
	k="74" />
    <hkern g1="V"
	g2="y,yacute,ydieresis"
	k="18" />
    <hkern g1="V"
	g2="A,Agrave,Aacute,Acircumflex,Atilde,Adieresis,Aring,AE"
	k="55" />
    <hkern g1="V"
	g2="comma"
	k="129" />
    <hkern g1="V"
	g2="period"
	k="129" />
    <hkern g1="V"
	g2="e,egrave,eacute,ecircumflex,edieresis"
	k="55" />
    <hkern g1="V"
	g2="o,ograve,oacute,ocircumflex,otilde,odieresis,oslash,oe"
	k="55" />
    <hkern g1="V"
	g2="hyphen"
	k="55" />
    <hkern g1="V"
	g2="a,agrave,aacute,acircumflex,atilde,adieresis,aring,ae"
	k="55" />
    <hkern g1="V"
	g2="i,igrave,iacute,icircumflex,idieresis"
	k="-6" />
    <hkern g1="V"
	g2="r"
	k="37" />
    <hkern g1="V"
	g2="u,ugrave,uacute,ucircumflex,udieresis"
	k="37" />
    <hkern g1="V"
	g2="colon"
	k="74" />
    <hkern g1="V"
	g2="semicolon"
	k="74" />
    <hkern g1="w"
	g2="comma"
	k="55" />
    <hkern g1="w"
	g2="period"
	k="55" />
    <hkern g1="W"
	g2="A,Agrave,Aacute,Acircumflex,Atilde,Adieresis,Aring,AE"
	k="18" />
    <hkern g1="W"
	g2="comma"
	k="74" />
    <hkern g1="W"
	g2="period"
	k="74" />
    <hkern g1="W"
	g2="e,egrave,eacute,ecircumflex,edieresis"
	k="18" />
    <hkern g1="W"
	g2="o,ograve,oacute,ocircumflex,otilde,odieresis,oslash,oe"
	k="18" />
    <hkern g1="W"
	g2="a,agrave,aacute,acircumflex,atilde,adieresis,aring,ae"
	k="37" />
    <hkern g1="W"
	g2="i,igrave,iacute,icircumflex,idieresis"
	k="-24" />
    <hkern g1="W"
	g2="r"
	k="18" />
    <hkern g1="W"
	g2="u,ugrave,uacute,ucircumflex,udieresis"
	k="18" />
    <hkern g1="W"
	g2="colon"
	k="18" />
    <hkern g1="W"
	g2="semicolon"
	k="18" />
    <hkern g1="y,yacute,ydieresis"
	g2="comma"
	k="92" />
    <hkern g1="y,yacute,ydieresis"
	g2="period"
	k="92" />
    <hkern g1="Y,Yacute,Ydieresis"
	g2="v"
	k="55" />
    <hkern g1="Y,Yacute,Ydieresis"
	g2="A,Agrave,Aacute,Acircumflex,Atilde,Adieresis,Aring,AE"
	k="74" />
    <hkern g1="Y,Yacute,Ydieresis"
	g2="comma"
	k="123" />
    <hkern g1="Y,Yacute,Ydieresis"
	g2="period"
	k="99" />
    <hkern g1="Y,Yacute,Ydieresis"
	g2="e,egrave,eacute,ecircumflex,edieresis"
	k="92" />
    <hkern g1="Y,Yacute,Ydieresis"
	g2="o,ograve,oacute,ocircumflex,otilde,odieresis,oslash,oe"
	k="92" />
    <hkern g1="Y,Yacute,Ydieresis"
	g2="q"
	k="92" />
    <hkern g1="Y,Yacute,Ydieresis"
	g2="hyphen"
	k="111" />
    <hkern g1="Y,Yacute,Ydieresis"
	g2="a,agrave,aacute,acircumflex,atilde,adieresis,aring,ae"
	k="92" />
    <hkern g1="Y,Yacute,Ydieresis"
	g2="i,igrave,iacute,icircumflex,idieresis"
	k="7" />
    <hkern g1="Y,Yacute,Ydieresis"
	g2="u,ugrave,uacute,ucircumflex,udieresis"
	k="74" />
    <hkern g1="Y,Yacute,Ydieresis"
	g2="colon"
	k="92" />
    <hkern g1="Y,Yacute,Ydieresis"
	g2="semicolon"
	k="92" />
    <hkern g1="Y,Yacute,Ydieresis"
	g2="p"
	k="74" />
    <hkern g1="quoteright"
	g2="s,scaron"
	k="111" />
    <hkern g1="quoteright"
	g2="t"
	k="18" />
  </font>
</defs></svg>
